"","V1","V2","V3","V4"
"1",226021,-0.000962282,3522,0.0380313199105144
"2",159753,-0.00241691,1633,0.00542095364531481
"3",187573,-0.00273403,1166,0.00219298245614041
"4",127251,-2.78209e-05,2615,0.00250025002500265
"5",188489,-2.9624e-05,99,0.0204081632653061
"6",287365,-0.00176676,1002,0.00681407314698912
"7",113035,-0.00120085,1618,0.000135153399107968
"8",187663,-0.0015895,2211,0.0259740259740262
"9",155701,-0.00210319,92,0.00169204737732664
"10",171750,-0.000928146,4453,0.000245639891918392
"11",241156,-6.03958e-05,4930,0
"12",112218,-5.59531e-05,1964,0.00847368971649753
"13",273271,-0.00036957,2901,0.000100816614578059
"14",127232,-0.00200689,2376,0.00250025002500265
"15",126530,-1.51085e-05,4159,0.000228571428571356
"16",273317,-0.000313053,2466,0.000100090081073034
"17",270809,-0.00092017,2475,0.00490049004900484
"18",287241,-0.00196749,328,0.00900900900900903
"19",257524,-0.00123026,1311,0.00932400932400923
"20",158147,-0.00210164,646,0.017777777777778
"21",143473,-0.000300136,1508,0.0180266666666665
"22",272564,-0.00247862,2392,0.00652794777641785
"23",241316,-7.50207e-05,4821,0.00923076923076938
"24",186733,-0.000329065,1839,0.000995685363425092
"25",155549,-0.015851,302,0.000740192450037092
"26",129050,-0.0028178,511,0.00444444444444458
"27",110377,-2.78049e-05,2349,0.000400160064025767
"28",189109,-0.000649245,838,0.000165809981760856
"29",273318,-0.000274421,2534,0.000100090081073034
"30",185025,-0.000205189,3178,0.0133864365527159
"31",158310,-0.00455962,2025,0
"32",259416,-0.00297709,209,0.00177304964538982
"33",159711,-0.00160783,3366,0.0054209536453147
"34",140771,-0.00355531,1668,0.0165441176470588
"35",187747,-0.00163243,2326,0.0145454545454546
"36",272692,-0.000761118,3677,0.00467775467775478
"37",157185,-9.38683e-05,2249,0.000100492412822617
"38",273597,-0.000376354,1027,0.00297619047619035
"39",255462,-0.00238886,1638,0.0261333333333335
"40",270236,-0.00185622,1278,0.000519750519750617
"41",158984,-0.000603509,2503,0.00492412822831867
"42",241189,-0.00325167,70,0
"43",289585,-0.00429513,1148,0.000507356671740178
"44",158057,-0.00027041,4734,0.00666173205033294
"45",241173,-0.00293643,142,0.00370218017276847
"46",272589,-0.00079009,2119,0.00661430343116998
"47",273299,-0.000428067,364,0.00177304964538982
"48",111545,-1.37295e-06,2933,0.00166666666666671
"49",155689,-0.00475267,92,0.00169204737732664
"50",114874,-5.52571e-06,2043,0.000439560439560394
"51",189687,-0.00132025,1019,0.000649772579597085
"52",272769,-0.000278392,654,0.012036354704004
"53",241419,-0.0018877,2356,0.0121012101210121
"54",273137,-0.00820216,932,0.00121638059197171
"55",159491,-0.00599167,962,0.000582750582750702
"56",257159,-0.00448852,1521,0.0152801358234295
"57",285734,-0.000418735,1248,0.00233100233100225
"58",141582,-0.000658075,2672,0.0201149425287358
"59",289732,-0.000815514,2041,0.0103348491112031
"60",142823,-0.000475313,2289,0.0381163551895262
"61",143700,-0.00353924,845,0.00313725490196093
"62",258555,-0.0131283,204,0.0234374999999998
"63",273371,-0.0298272,364,0.00177304964538982
"64",127892,-0.00811759,905,0.00149228983584793
"65",189199,-0.000410366,4022,0.00702508960573478
"66",225291,-0.000573577,1690,0.000110631707047282
"67",156263,-0.000667077,318,0.0189473684210526
"68",113015,-0.00125888,957,0.00181488203266778
"69",114688,-0.000448274,1209,0.00549882168106863
"70",188521,-0.000169498,99,0.0204081632653061
"71",258816,-0.00612697,1032,0.00138057984353435
"72",144174,-0.00787377,138,0.0256410256410257
"73",141661,-0.00322895,1512,0.00207900207900213
"74",187176,-0.00371687,1033,0.00143334925943628
"75",113193,-3.0317e-06,1381,0
"76",185973,-0.00154964,955,0.00584795321637432
"77",126410,-0.00649321,1056,0.0100000000000002
"78",156068,-0.000985619,324,0.0189473684210526
"79",240284,-0.00591654,620,0.000181455271275777
"80",227769,-4.70057e-05,92,0.00102564102564118
"81",210698,-7.00609e-05,3242,0.0125531694159146
"82",127156,-6.68707e-05,758,0.00353669319186556
"83",270260,-0.0050754,378,0.0138248847926267
"84",240919,-2.23932e-06,2309,0.00360576923076905
"85",228709,-2.58092e-05,860,0.000165809981760856
"86",271120,-0.00163474,933,0.000153397760392693
"87",185157,-0.00194182,1143,0.00118436636399533
"88",259787,-0.000662231,4619,0.00488400488400487
"89",129847,-0.00135171,1360,0.00628930817610063
"90",144614,-5.85685e-05,518,0.00709219858156029
"91",273439,-0.000104557,1419,0.00735294117647056
"92",259601,-0.00295981,564,0.000360360360360468
"93",288682,-0.00643026,1148,0.00283486888731399
"94",210231,-2.12138e-05,3354,0.00171600171600184
"95",140018,-4.21933e-07,20,0.0101010101010102
"96",126228,-0.000198522,4206,0.000159261028826241
"97",171296,-0.0180352,695,0.000214086919289258
"98",112912,-0.00135277,981,0.00504133897963288
"99",270450,-0.00229619,659,0
"100",156173,-0.0249781,318,0.0189473684210526
"101",214968,-0.000247909,2452,0.000404040404040407
"102",228223,-4.03068e-05,808,0.000173160173159936
"103",240616,-0.00315918,1709,0.00097076906482596
"104",172884,-0.000379929,3288,0.00723654454997735
"105",259129,-0.0231554,30,0
"106",241297,-0.00143015,2168,0.00823924321025327
"107",228860,-0.0152415,871,0.013430608522633
"108",243643,-0.00961565,157,0
"109",155196,-0.00575711,87,0.0204081632653061
"110",240135,-0.00520093,282,0.00343642611683848
"111",286680,-0.00429262,177,0
"112",144718,-0.00337407,210,0.0185048112509255
"113",242993,-0.00149092,498,0.0157505625200901
"114",273759,-0.00348063,974,0
"115",259451,-0.0022085,173,0
"116",226417,-0.00908606,259,0.00153609831029211
"117",240839,-0.0490005,168,0.0389610389610386
"118",257848,-0.00167515,1983,0.016282225237449
"119",255494,-0.00922512,390,0.00614099729796125
"120",210393,-0.00543701,796,0.00988102440008043
"121",159748,-6.3821e-06,1633,0.00542095364531481
"123",212851,-3.5206e-05,515,0.0221043324491601
"124",113627,-0.0039917,861,0.00241109101868586
"125",186621,-0.00759932,310,0.00289296046287368
"126",126423,-0.0138679,1110,0.0032899065666534
"127",228730,-0.0140305,700,0.00313725490196093
"128",214447,-0.00113866,2047,0.0121303258145363
"129",211907,-0.010105,154,0.0137457044673539
"130",273143,-0.00938527,545,0.000321440051430533
"131",258740,-0.0156823,261,0.0204081632653061
"132",185888,-0.000407639,74,0
"133",129112,-0.00858362,1229,0.0242293906810038
"134",156318,-0.00195119,601,0.00444444444444458
"135",129172,-0.00298136,502,0.0185142857142857
"136",155146,-0.000240843,3610,0.0124007936507936
"138",188855,-0.00307895,1109,0.0129937629937632
"139",157557,-0.000251947,3029,0.00508351488743664
"140",126119,-0.00155657,2863,0.00160578081091922
"141",129959,-0.000345697,869,0.000181455271275777
"142",212383,-0.0149101,141,0.00842105263157888
"143",259424,-0.000102963,173,0
"144",172153,-0.000742938,2803,0.0169423558897241
"145",242366,-0.0110132,52,0.00169204737732664
"146",114450,-0.00190416,2014,0.000445632798574014
"147",140464,-0.00274544,121,0.00102564102564118
"148",172361,-0.0342524,185,0.0204081632653061
"149",125067,-0.000484098,3740,0
"150",259105,-0.00525935,374,0.00324324324324343
"151",258881,-0.00278477,930,0.00609756097560987
"152",159270,-1.68195e-05,3572,0.00609756097560998
"153",287394,-0.00150704,255,0.012025012025012
"154",157379,-0.00694992,743,0.00171788509257498
"155",229186,-6.60046e-05,250,0.0333196215549155
"156",211966,-0.0291844,65,0
"157",226691,-0.00137143,30,0
"158",141184,-0.000203469,1691,0.00748013090229072
"159",270481,-0.000735101,1446,0.0011551790527532
"160",227275,-0.0967319,27,0
"161",155269,-0.00170177,96,0.0152284263959391
"162",125009,-0.0058404,319,0.00432900432900429
"163",142192,-0.000162726,1671,0.00276579267618093
"164",226105,-0.0150289,142,0.00169204737732664
"165",257364,-0.00314199,25,0.0152284263959391
"166",156715,-0.00512137,130,0.00102564102564118
"167",273116,-0.00566589,440,0
"168",228246,-0.00468243,521,0.000228571428571356
"169",185021,-0.000395403,216,0.00260416666666652
"170",259299,-0.00756014,495,0.00614099729796125
"171",289848,-0.000303168,584,0.00803600128576043
"172",255224,-0.00287818,581,0.00504133897963288
"173",212886,-0.00266819,47,0.00169204737732664
"174",258250,-0.000470617,27,0.00502512562814073
"175",143967,-0.000632876,699,0.000946969696969613
"176",142849,-0.00334518,186,0.00260416666666652
"177",287678,-0.0124274,727,0.00271002710027113
"178",271227,-0.00097104,1111,0.00446428571428581
"179",140054,-0.0022756,20,0.0101010101010102
"180",259474,-0.008336,254,0.00260416666666652
"181",129217,-0.00560543,1261,0.000507356671740178
"182",259273,-0.0647039,30,0
"183",226116,-0.0206415,257,0.0185048112509255
"184",159802,-0.0391177,231,0.00666173205033316
"186",127877,-8.90266e-06,231,0.014543339150669
"187",157678,-0.0119611,836,0
"188",185487,-3.20033e-05,249,0
"189",287034,-0.00274457,87,0.0256410256410257
"190",258168,-0.0605513,50,0.0204081632653061
"191",214608,-0.00122739,30,0.00502512562814073
"192",227817,-0.00224183,260,0.000481000481000526
"193",228704,-0.000114188,194,0.0185048112509255
"194",158436,-0.0127957,524,0.00665070497472731
"195",272756,-0.0095497,42,0.00502512562814073
"196",141095,-0.00122216,1668,0.00748013090229072
"197",225501,-0.00263791,267,0.00153609831029211
"198",173106,-0.0368132,223,0.00177304964538982
"199",140246,-7.20434e-06,136,0
"200",189569,-0.0100284,934,0.00250000000000006
"201",288557,-0.000766502,159,0
"202",112657,-0.0021465,135,0.014543339150669
"203",110602,-0.00946649,130,0.00666173205033316
"204",225192,-0.000145859,141,0
"205",186352,-0.0225965,47,0
"206",171187,-0.0579379,90,0.0101010101010102
"207",240067,-0.00976132,64,0.00502512562814073
"208",285375,-0.00675202,918,0.00250000000000006
"209",171602,-0.0113066,492,0.00488400488400464
"210",285787,-0.0887167,355,0.00210526315789494
"211",287336,-0.0545927,103,0.00169204737732664
"212",226338,-0.00966275,345,0.00432900432900429
"213",210231,-0.00906149,1093,0.0192
"214",142616,-0.000691302,36,0.0101010101010102
"215",289771,-0.00276159,1201,0.000139062717285365
"216",226240,-0.0059969,540,0.000946969696969613
"217",187715,-0.00751292,117,0.00510204081632648
"218",287113,-0.144745,157,0
"219",112139,-0.00171782,644,0.0141467727674625
"220",187917,-0.000302683,62,0.00502512562814073
"221",211656,-0.00198019,325,0.0109890109890112
"223",289387,-0.000388534,246,0.000321440051430533
"224",212659,-0.00390753,634,0.00297619047619035
"226",126886,-0.00132263,1063,0.00110415899889582
"227",189923,-0.0718737,100,0.0185048112509255
"228",171205,-0.0238796,256,0.00432900432900429
"229",143879,-0.002009,1094,0.0162443144899286
"230",228954,-0.0137746,453,0.00571428571428556
"231",186396,-0.000518466,170,0.0104166666666667
"232",229347,-0.0518205,193,0.0185048112509255
"233",210878,-0.0030844,480,0.000481000481000526
"234",126181,-0.0515788,333,0.0102838338132457
"235",140729,-0.00772615,1117,0.0432
"236",210358,-0.00181537,351,0
"237",289364,-0.00133167,259,0
"238",228530,-0.0244446,18,0.00502512562814073
"239",227103,-0.0394173,83,0.0152284263959391
"240",257181,-0.13658,56,0.00502512562814073
"241",173189,-0.000316137,2898,0.00840336134453779
"242",285744,-0.00360854,355,0.00210526315789494
"243",274428,-0.00531827,1142,0.00233100233100225
"244",241206,-0.000613736,1576,0.00102564102564118
"245",241432,-0.000480007,2170,0.00369458128078815
"246",111047,-0.00397063,1428,0.00831600831600843
"247",210804,-0.000758454,350,0.0215482841181167
"248",188071,-0.00190527,88,0.00510204081632648
"249",127651,-0.00173807,118,0.00510204081632648
"250",259193,-0.0357296,804,0.000744047619047561
"251",126154,-0.0113143,255,0.000290782204129036
"252",213348,-0.0100724,895,0.0295358649789029
"253",257965,-6.59895e-05,34,0.00502512562814073
"255",226522,-0.00879656,23,0.0101010101010102
"256",128844,-0.000856423,242,0
"257",155659,-0.00314982,229,0.000740192450037092
"258",241472,-0.000536992,142,0.00370218017276847
"259",225303,-0.0111988,325,0
"260",256097,-0.000479747,503,0.000321440051430533
"261",127209,-0.016522,872,0.0119047619047616
"262",170699,-0.000465853,233,0.00510204081632648
"263",211005,-0.00186577,333,0.00135869565217372
"265",286435,-0.0158958,267,0.000411353352529842
"266",185337,-0.0703084,119,0.00169204737732664
"267",225692,-3.9879e-06,501,0.0163432073544434
"268",258189,-0.00479771,205,0.0234374999999998
"269",126211,-0.0240288,255,0.000290782204129036
"270",155163,-0.0120507,842,0.00637845499645628
"271",155549,-6.43445e-06,409,0.00153609831029211
"272",257415,-0.177759,27,0.00502512562814073
"273",256894,-0.0234267,25,0.0152284263959391
"274",128898,-0.00115302,118,0.00510204081632648
"275",156211,-0.0266079,36,0
"276",188485,-0.0138748,743,0.000190876121397232
"277",229741,-0.000688051,178,0.0235690235690235
"278",241247,-0.0483195,68,0
"279",226643,-0.0112138,887,0.00332225913621276
"280",112733,-0.00510194,164,0.0102838338132457
"281",156776,-0.0307641,139,0.000740192450037092
"282",287108,-0.065302,18,0
"283",287963,-0.0200748,279,0.00614439324116745
"284",114982,-0.00798224,705,0.000677506775067727
"285",227493,-0.0244256,392,0.00210526315789494
"286",288813,-0.00610106,242,0.00900900900900903
"287",214822,-0.0117215,322,0.014543339150669
"288",256938,-0.104128,25,0.0152284263959391
"289",159482,-0.00067881,886,0.00637845499645628
"290",288527,-0.037815,159,0
"291",214107,-0.0319778,133,0.0185048112509255
"292",257275,-0.111092,25,0.0152284263959391
"293",143046,-0.000370986,1162,0.0243902439024389
"294",159294,-0.000146869,68,0.0101010101010102
"295",113675,-0.00224582,45,0
"296",172823,-0.0265877,351,0.00432900432900429
"297",240665,-0.00316314,218,0.0283687943262407
"298",225600,-0.00123078,628,0.00261703983716199
"299",111315,-0.0463873,326,0.00210526315789494
"300",172910,-8.78134e-05,75,0.00169204737732664
"301",110183,-0.0952173,130,0.00666173205033316
"302",286343,-0.0157698,453,0.00210526315789494
"303",186792,-0.00710048,123,0.00102564102564118
"304",241085,-0.0680105,110,0.00169204737732664
"305",142997,-0.0182025,46,0.00502512562814073
"306",172383,-0.00445685,144,0.0152284263959391
"307",240218,-0.027893,64,0.00502512562814073
"308",289197,-0.00350302,629,0.000830564784053189
"309",274142,-0.0303052,177,0.0204081632653061
"310",141591,-0.0197573,311,0.00543478260869557
"311",259078,-0.000547313,223,0.00102564102564118
"312",126707,-0.055887,242,0.00842105263157888
"313",258633,-0.0659543,34,0.00510204081632648
"314",240398,-0.0066653,806,0.00163309744148066
"315",240898,-0.000967949,142,0
"316",226908,-0.00174116,51,0.0204081632653061
"317",289807,-0.0209394,911,0
"318",188614,-0.128787,251,0.00432900432900429
"319",144855,-0.0295535,80,0.00502512562814073
"320",240956,-0.0306411,88,0.0204081632653061
"321",188598,-0.00011758,1507,0.0289461781999094
"322",172206,-0.072821,142,0.0185048112509255
"323",129392,-0.0249345,177,0.00343642611683848
"324",285067,-0.00116444,1286,0.0174842156386595
"325",225835,-0.00256048,142,0.00169204737732664
"326",113650,-0.0276243,699,0.000245639891918392
"327",258733,-0.0163376,456,0.0141467727674625
"328",244608,-0.0290996,267,0.00177304964538982
"329",287497,-0.00202736,137,0.00510204081632648
"330",228858,-0.0240489,158,0.0137457044673539
"331",257064,-0.00986766,492,0.00261703983716199
"332",210711,-0.00266688,653,0.010840108401084
"333",225133,-0.0402438,427,0.00488400488400464
"334",225787,-4.5339e-05,1011,0.00149228983584793
"335",111738,-0.000352292,1142,0.0433946387786994
"336",155657,-0.0191647,42,0.00502512562814073
"337",173200,-0.039541,233,0
"338",257600,-0.00072056,268,0.0185048112509255
"339",157140,-0.00861899,318,0.0497737556561086
"340",270110,-0.000837044,132,0.00260416666666652
"341",174626,-0.00269377,572,0.0299003322259136
"342",286338,-0.101449,91,0.0101010101010102
"344",170301,-0.0398838,79,0.00169204737732664
"345",256211,-0.000285965,80,0.00102564102564118
"346",158285,-0.0192208,329,0.00289296046287368
"347",244580,-0.0427599,53,0.00502512562814073
"348",210504,-0.0087859,95,0.0152284263959391
"349",157349,-0.0194954,67,0.00923076923076938
"350",142380,-0.0224029,918,0.0200630077930691
"351",157182,-0.250696,13,0.00502512562814073
"352",212028,-0.000318269,1905,0.00042034468263985
"353",288165,-0.0536586,159,0.00510204081632648
"354",125062,-0.0325022,295,0.00260416666666652
"355",114174,-0.102865,255,0.0152284263959391
"356",242987,-0.0105956,27,0
"357",259985,-0.0583529,196,0.000740192450037092
"358",287615,-0.0718963,107,0.0185048112509255
"360",212559,-0.00959433,51,0
"361",270449,-0.00076898,1814,0.00863999999999998
"362",241383,-0.0719875,67,0.00502512562814073
"363",214959,-0.0548411,331,0.0157505625200901
"364",174395,-0.000499802,479,0.000946969696969613
"366",271882,-0.00165448,341,0.000290782204129036
"367",114605,-0.0102069,1148,0.00198412698412709
"368",259607,-0.0279931,177,0.00169204737732664
"369",141855,-7.2258e-07,845,0.0119047619047616
"370",288702,-0.0054167,157,0
"371",212339,-0.0450676,192,0
"372",257809,-0.022272,207,0.000740192450037092
"373",258629,-0.023378,337,0.000581733566026643
"374",240779,-0.019577,33,0.00502512562814073
"375",288696,-0.0230888,90,0.0152284263959391
"376",210347,-0.00043649,292,0
"377",288002,-0.136599,159,0.00510204081632648
"378",129189,-0.0837678,55,0.0101010101010102
"379",258065,-0.0610191,49,0.0101010101010102
"380",257814,-0.00648969,200,0.0234374999999998
"381",159532,-0.0403398,90,0.0101010101010102
"382",112210,-0.0332719,531,0.0185142857142857
"383",155225,-0.0494319,95,0.0152284263959391
"384",288699,-0.0855092,113,0.00102564102564118
"385",111566,-0.0069917,658,0.00205714285714276
"386",126586,-0.126064,55,0.0137457044673539
"387",173225,-0.0013767,57,0.00502512562814073
"388",173573,-0.00366828,137,0.0152284263959391
"389",255352,-0.049161,384,0.000411353352529842
"390",255438,-0.000195993,80,0.00102564102564118
"391",243473,-0.0247966,99,0
"392",210588,-0.01111,252,0.000481000481000526
"393",158972,-0.0016515,90,0.0101010101010102
"394",142535,-0.0579314,74,0.00502512562814073
"395",129902,-0.0033901,516,0.000321440051430533
"396",140640,-6.37897e-05,487,0.000321440051430533
"397",227020,-0.0545495,152,0.0137457044673539
"398",286760,-0.0388943,148,0
"399",141946,-0.0285003,389,0.00261703983716199
"400",112230,-0.0406137,143,0.0189473684210526
"401",188561,-0.00655665,81,0.0152284263959391
"402",240050,-0.00550393,628,0.0602678571428571
"404",129249,-0.0537578,304,0.000740192450037092
"405",285757,-0.0133671,341,0.00102564102564118
"406",244778,-0.0016911,343,0.00324324324324343
"407",185794,-0.0408704,84,0
"408",127473,-0.00539937,305,0.00370218017276847
"409",110706,-0.0429012,280,0.00135869565217372
"410",174017,-0.00599062,644,0.0070588235294119
"411",141667,-0.00919267,110,0.0256410256410257
"412",157029,-0.00113959,433,0.00614439324116745
"414",127732,-0.0193468,275,0.014543339150669
"415",157867,-0.000537967,170,0.0104166666666667
"416",114035,-0.0311995,45,0
"417",242515,-0.00249195,106,0.00923076923076938
"418",285244,-0.032888,343,0.00102564102564118
"420",256916,-0.0106566,92,0
"421",213147,-0.0204561,323,0.0471204188481675
"422",240475,-0.000469516,738,0.0173410404624277
"423",129922,-0.0107085,516,0.000321440051430533
"424",271015,-0.00653356,550,0
"425",113926,-0.00101868,1294,0.0114889705882353
"426",144945,-0.00414129,536,0.00171788509257498
"427",255024,-0.117593,169,0.000481000481000526
"428",271042,-0.00116357,416,0.00261703983716199
"429",274213,-3.17322e-07,227,0.00842105263157888
"430",158821,-0.00247882,1281,0.00121638059197171
"431",159967,-0.000685718,231,0.00666173205033316
"432",285054,-0.0176651,139,0.014543339150669
"433",174488,-0.0221832,130,0.0137457044673539
"434",211012,-0.000362473,175,0.00432900432900429
"435",129409,-0.00237282,540,0.000290782204129036
"436",213637,-0.000755534,591,0.00111111111111117
"437",125019,-0.123437,210,0
"438",244852,-8.46758e-05,60,0.00169204737732664
"439",126301,-0.00481386,383,0.000411353352529842
"440",127833,-0.000469154,361,0
"441",213077,-2.49621e-05,28,0.0101010101010102
"442",129011,-0.00112651,52,0.0101010101010102
"443",126711,-0.0135532,261,0.000290782204129036
"444",240526,-0.0147052,130,0.0104166666666667
"445",274477,-0.00137358,90,0.00510204081632648
"446",244099,-0.00163984,78,0
"447",172879,-0.369698,59,0
"448",128348,-0.00531099,253,0.00169204737732664
"450",285800,-0.040368,244,0.00324324324324343
"451",188226,-4.83925e-05,276,0.00177304964538982
"453",156813,-0.0577061,90,0.00169204737732664
"454",273311,-0.02561,71,0.00169204737732664
"455",288846,-0.0249321,162,0.0234374999999998
"456",189699,-0.0628538,192,0.00169204737732664
"457",129693,-0.0263775,104,0.00102564102564118
"458",128238,-0.0182788,207,0.0104166666666667
"460",111685,-0.0247871,162,0.00260416666666652
"461",110591,-0.0103958,130,0.00666173205033316
"462",129991,-0.00472689,533,0.00444444444444458
"463",210405,-0.00554652,1490,0.00225861095426316
"465",240827,-0.00453161,232,0.00260416666666652
"466",171530,-0.0040832,40,0.00502512562814073
"467",214952,-0.010146,842,0
"468",255249,-0.0113249,125,0.00510204081632648
"469",256978,-0.0366575,92,0.0152284263959391
"470",187898,-0.0149656,61,0
"472",289839,-0.000571853,100,0.00510204081632648
"473",212982,-0.00274815,217,0.0101010101010102
"474",287217,-3.94582e-06,34,0.0101010101010102
"475",256572,-0.0329512,39,0.00502512562814073
"476",112021,-0.0342583,226,0.00510204081632648
"477",158787,-0.0358186,251,0.014543339150669
"478",289376,-0.0143104,305,0.00709219858156029
"479",143970,-0.0627155,143,0.0137457044673539
"480",155693,-0.108985,242,0.00153609831029211
"481",112496,-0.0174575,13,0.00502512562814073
"482",243418,-0.0238415,109,0
"483",142798,-0.139207,138,0
"484",155974,-0.00346515,252,0.0104166666666667
"485",210812,-0.00774532,461,0.00177304964538982
"487",142286,-0.0240232,68,0.0152284263959391
"488",288052,-0.0587652,159,0.00510204081632648
"489",159633,-0.0040286,570,0
"490",259163,-6.70548e-05,184,0
"491",213611,-0.080558,62,0
"493",143649,-0.00044819,23,0.0152284263959391
"494",274265,-0.0012248,1431,0.000113960113960254
"495",143956,-0.00241094,169,0.00102564102564118
"496",155264,-0.00341047,31,0.00502512562814073
"497",274068,-0.0674142,177,0.0204081632653061
"499",273673,-0.0583414,163,0.000581733566026643
"500",285186,-0.0232816,207,0.0185048112509255
"501",243203,-0.00720684,459,0.0235533585344578
"502",211826,-0.00325876,414,0.00153609831029211
"504",240833,-0.0175951,271,0.000740192450037092
"507",241859,-0.0185775,67,0.00502512562814073
"509",142762,-0.00840843,261,0.00523560209424112
"511",288297,-3.33743e-06,145,0
"512",157347,-0.000277558,310,0.0159574468085105
"514",259748,-0.0222777,333,0.00135869565217372
"515",213923,-0.0985911,52,0
"516",226595,-0.0733776,139,0.00169204737732664
"518",244236,-0.00319151,96,0
"519",156076,-0.138013,90,0.00169204737732664
"520",255086,-0.0827599,125,0.00510204081632648
"521",112256,-0.0505217,36,0.00502512562814073
"522",156955,-0.090093,35,0.00169204737732664
"523",272645,-0.00547065,62,0.0204081632653061
"524",144667,-0.0319448,332,0.00523560209424112
"525",210491,-0.000245544,484,0
"526",242166,-0.0539095,105,0.00523560209424112
"527",273113,-0.0152843,157,0.000581733566026643
"528",174507,-0.0691415,124,0.000581733566026643
"529",143808,-0.00787802,43,0.0204081632653061
"530",213412,-0.0241542,62,0
"531",128988,-0.102899,250,1.11022302462516e-16
"532",187184,-0.222041,26,0.0101010101010102
"533",156979,-0.000236482,25,0
"534",111439,-0.00151106,119,0.00210526315789494
"535",187327,-0.000582849,235,0.000581733566026643
"536",174525,-0.0149239,1185,0.0151724137931034
"537",210060,-0.00186906,289,0.0159574468085105
"538",286437,-0.00391395,452,0.00210526315789494
"539",156021,-0.0392175,278,0.0159574468085105
"540",110940,-0.0986396,47,0
"541",257485,-0.0134035,177,0.0283687943262407
"542",143993,-0.0021021,244,0.00842105263157888
"543",110312,-0.0247647,130,0.00666173205033316
"544",244273,-0.182812,93,0
"547",125731,-0.00268524,308,0.00289296046287368
"548",255869,-0.11508,90,0.00923076923076938
"549",155555,-0.00350543,847,0
"550",185222,-0.020473,285,0.000360360360360468
"551",271636,-0.0150719,109,0.00666173205033316
"552",257112,-0.0414033,181,0.0159574468085105
"553",144638,-0.0264709,81,0.00510204081632648
"554",126034,-0.0326724,128,0.00666173205033316
"555",210383,-0.0243087,334,0.0449587656291568
"556",185255,-0.135232,77,0.0101010101010102
"557",125070,-0.000144365,210,0
"558",155715,-0.0395949,92,0.00169204737732664
"559",285292,-0.0273163,273,0.0234374999999998
"560",114981,-0.0121079,72,0.00169204737732664
"561",213224,-0.5425,42,0
"562",272936,-0.000349051,51,0.00502512562814073
"564",156082,-0.0415324,276,0.00803600128576043
"565",244028,-0.0100605,19,0.0101010101010102
"566",242671,-0.0395181,80,0.00502512562814073
"567",271367,-0.107181,17,0.0101010101010102
"569",127038,-0.0287732,434,0.00026602819898891
"570",187402,-0.049068,88,0.00510204081632648
"571",172580,-0.00924456,430,0.00432900432900429
"572",110931,-0.0169053,264,0.00177304964538982
"573",170073,-0.0146042,388,0
"574",212275,-7.07488e-05,156,0.00102564102564118
"576",156582,-0.0433537,36,0
"577",272761,-0.0570634,191,0.00523560209424112
"578",185493,-0.0142172,27,0.00502512562814073
"579",271570,-0.0536048,140,0.00169204737732664
"580",213460,-0.00283621,176,0.00102564102564118
"582",271943,-0.00907739,503,0
"583",286690,-0.0113996,169,0.0309278350515466
"584",173065,-0.00111848,220,0.00177304964538982
"585",288951,-0.0843027,146,0.00510204081632648
"586",112587,-0.101239,46,0
"587",141577,-0.0248085,585,0.00614099729796125
"588",270046,-0.0147361,204,0.00210526315789494
"589",243791,-0.000821282,554,0.0141467727674625
"590",187022,-0.000365993,47,0
"591",156644,-0.000268143,81,0.0101010101010102
"592",243540,-0.064114,197,0.00102564102564118
"593",256160,-0.000914538,160,0.00343642611683848
"594",214756,-6.03501e-06,349,0.014543339150669
"596",142030,-0.0387689,110,0.0256410256410257
"597",170311,-0.0590328,285,0.00135869565217372
"598",114382,-0.00087929,49,0.0101010101010102
"599",111574,-0.0276437,145,0.00260416666666652
"600",126581,-0.00936085,74,0.00102564102564118
"601",170455,-0.0335197,115,0.00666173205033316
"602",171252,-0.00592928,29,0.00502512562814073
"603",228560,-0.00733564,18,0.00502512562814073
"604",226088,-7.02392e-05,261,0.00153609831029211
"605",240392,-0.0332391,623,0.012036354704004
"606",225085,-0.0378713,739,0.00221075902726597
"607",174744,-0.0658278,83,0.00169204737732664
"608",170264,-0.0361375,232,0.00666173205033316
"609",110945,-0.000198735,104,0.00502512562814073
"612",212744,-0.0155872,50,0.00510204081632648
"615",274220,-0.39027,64,0.0101010101010102
"616",158872,-0.00544951,175,0.00343642611683848
"617",142443,-0.000325675,206,0.00260416666666652
"618",112080,-0.0034647,18,0.00502512562814073
"620",185527,-0.101278,91,0
"621",258391,-0.00647704,99,0.00343642611683848
"623",243629,-0.0076682,299,0.000740192450037092
"624",271503,-0.118761,127,0.00260416666666652
"625",229012,-0.0455793,147,0.00666173205033316
"626",170542,-0.0129957,115,0.00666173205033316
"627",272459,-0.00315997,66,0.0204081632653061
"628",110274,-0.000452054,361,0.0102838338132457
"630",227173,-0.00804626,30,0
"631",159783,-0.117146,94,0.0101010101010102
"632",113371,-0.119633,150,0.0152284263959391
"633",187910,-0.0631101,174,0
"634",113814,-0.0377029,198,0.00324324324324343
"635",188546,-0.000786271,396,0.00111111111111117
"637",185777,-0.0683616,89,0.00169204737732664
"638",113204,-0.00186834,120,0.0152284263959391
"639",110840,-0.0104971,253,0.0201563142739611
"640",159878,-0.00277626,501,0.00852272727272729
"643",155804,-0.000979264,277,0.00210526315789494
"644",289609,-0.000601856,252,0.0234374999999998
"645",113220,-0.0943657,377,0.000290782204129036
"646",256751,-0.00890078,179,0.0159574468085105
"647",270552,-0.0750873,294,0.00370218017276847
"648",111650,-0.0175728,616,0.00026602819898891
"649",159751,-0.0367499,295,0.00432900432900429
"650",289209,-0.100261,128,0.0204081632653061
"651",158761,-0.034916,258,0
"652",257029,-0.00178919,479,0.00289296046287368
"653",189709,-0.0184108,246,0.00432900432900429
"654",112373,-0.00189721,52,0.0152284263959391
"655",126048,-0.0123623,106,0
"656",259143,-0.00260844,813,0.00477190303493025
"657",255409,-0.0629309,125,0.00510204081632648
"658",244376,-0.00391569,44,0.00502512562814073
"660",188704,-0.00989109,82,0.0137457044673539
"661",112348,-0.0978481,18,0.00502512562814073
"662",188789,-0.0900793,82,0.0137457044673539
"663",227439,-0.000345241,392,0.00210526315789494
"664",113880,-0.011911,45,0
"665",259576,-0.0533682,319,0.00795755968169765
"666",256073,-0.011072,18,0.00502512562814073
"667",211993,-2.07595e-05,286,0.000581733566026643
"668",187478,-0.00959824,127,0.00102564102564118
"669",286707,-0.0912311,276,0.0104166666666667
"670",213630,-0.14344,42,0
"671",143484,-3.65621e-05,166,0.00343642611683848
"672",140209,-0.00627603,33,0.0101010101010102
"673",128321,-0.010669,328,0.00370218017276847
"674",213501,-0.0813006,437,0.00324324324324343
"675",140042,-0.105572,313,0.0104166666666667
"676",110566,-0.00594163,532,0.00239425379090186
"678",287861,-0.0345569,59,0.0101010101010102
"679",287268,-0.00249497,147,0.00169204737732664
"680",127695,-0.0181338,36,0.00502512562814073
"681",244986,-0.00158449,128,0
"682",211935,-2.55366e-05,174,0
"683",141407,-0.178624,51,0.0101010101010102
"684",113125,-0.0566631,61,0.0204081632653061
"685",114811,-0.0373854,356,0
"686",211918,-0.00939912,379,0.00221075902726597
"688",127508,-0.129728,53,0.00502512562814073
"689",188778,-0.000760267,352,0.00153609831029211
"690",129167,-0.0107196,545,0.000290782204129036
"691",213716,-0.00537687,47,0.00169204737732664
"692",225032,-0.0342508,59,0.0152284263959391
"693",156282,-0.000119687,88,0.00169204737732664
"694",272447,-0.0268818,251,0.00432900432900429
"695",186057,-0.0384975,91,0
"696",185713,-0.0415525,126,0
"697",240220,-0.0925419,80,0.0185048112509255
"698",128884,-0.0522763,448,0.0235533585344578
"699",155338,-0.0386196,135,0.00169204737732664
"700",256956,-0.000644284,184,0
"701",111644,-0.000124664,106,0.0104166666666667
"702",256937,-0.0456162,133,0.00102564102564118
"703",158888,-0.0211059,160,0.00169204737732664
"704",241606,-0.0275366,94,0
"705",159562,-0.0196407,31,0.0101010101010102
"706",241385,-0.0301313,97,0.00502512562814073
"707",242131,-0.0218552,91,0.00510204081632648
"708",256168,-0.00698847,174,0.00523560209424112
"709",113169,-0.00241276,38,0
"710",157635,-0.0111183,575,0.046401515151515
"711",243061,-0.000669987,70,0.00169204737732664
"712",129613,-0.00186279,180,0.000740192450037092
"713",287409,-0.000931054,127,0.00169204737732664
"714",256301,-0.0592835,146,0.00923076923076938
"715",111814,-0.0199498,229,0.00210526315789494
"716",129850,-0.113171,29,0.00502512562814073
"717",155627,-0.101469,139,0.0152284263959391
"718",114451,-0.128823,75,0.00169204737732664
"719",144260,-0.0876918,14,0.00502512562814073
"720",242061,-0.0889337,27,0
"721",125111,-0.115986,185,1.11022302462516e-16
"722",257947,-0.0210289,90,0.00169204737732664
"723",159553,-0.00576689,171,0.0104166666666667
"724",272859,-0.0452248,94,0.0101010101010102
"726",244975,-0.0104669,32,0.00502512562814073
"727",157301,-0.0184374,140,0.000740192450037092
"728",272830,-0.0982586,153,0
"729",256405,-0.0213077,170,0.0159574468085105
"730",257222,-0.00277656,252,0.0185048112509255
"731",211182,-0.0069994,524,0.00665070497472731
"732",227848,-0.000374795,317,0.00543478260869557
"733",141571,-0.015953,160,0.000740192450037092
"734",189345,-0.027343,159,0.0104166666666667
"735",143124,-0.0158601,212,0.00102564102564118
"736",187222,-0.143638,47,0
"737",113212,-0.0607495,170,0
"738",188989,-0.0329611,299,0.0104166666666667
"739",171564,-0.0107844,118,0.0104166666666667
"740",240265,-0.0058319,334,0.00324324324324343
"741",270459,-0.198987,11,0.00502512562814073
"742",227857,-0.0269719,178,0.0137457044673539
"743",226797,-0.00153195,26,0.00169204737732664
"744",173294,-0.00291578,199,0.0102838338132457
"745",187051,-0.00255685,130,0.0101010101010102
"746",214567,-0.01104,63,0
"747",227767,-0.00107993,136,0.00343642611683848
"748",258349,-0.000848565,243,0.00260416666666652
"750",158688,-0.182605,48,0.0152284263959391
"752",171184,-0.0255412,256,0.00432900432900429
"753",159033,-0.075347,48,0.0152284263959391
"754",227795,-0.00448863,136,0.00343642611683848
"755",188029,-0.0134057,23,0.00502512562814073
"756",126859,-0.00412965,810,0.00681407314698912
"757",229810,-0.0742568,117,0.00102564102564118
"758",226939,-0.00217982,88,0.0137457044673539
"759",240838,-0.000746502,64,0.00502512562814073
"762",173964,-0.0376955,26,0.00502512562814073
"763",125535,-0.0903453,243,0
"765",272310,-0.172252,68,0
"766",112404,-0.224293,80,0.00510204081632648
"767",288354,-0.00287701,135,0
"768",157642,-0.154,60,0.00923076923076938
"769",272577,-0.00610471,78,0.00343642611683848
"770",211130,-0.0959779,180,0.00210526315789494
"771",256009,-0.226897,90,0.0204081632653061
"772",227942,-0.0256048,163,0.0137457044673539
"773",171281,-0.0186439,209,0.00923076923076938
"774",158628,-0.0182152,31,0.0101010101010102
"775",285467,-0.000579765,110,0.00666173205033316
"776",155312,-0.0208117,25,0
"777",228473,-0.00654599,93,0.00102564102564118
"778",110123,-4.38517e-06,126,0.00523560209424112
"779",273299,-0.00709703,172,0.00923076923076938
"780",157217,-0.0497721,103,0.00169204737732664
"781",211169,-0.0990672,91,0.00510204081632648
"783",289294,-0.0280509,153,0.00102564102564118
"784",228411,-0.036071,61,0.00102564102564118
"785",214065,-0.00569794,79,0.0101010101010102
"786",271039,-0.000310575,279,0.00370218017276847
"787",170384,-0.0307415,121,0.00343642611683848
"788",142253,-0.0669698,51,0.0101010101010102
"789",212607,-0.000259728,601,0.00122100122100111
"790",212879,-0.0990732,60,0.00502512562814073
"791",157831,-0.00422065,13,0.00502512562814073
"792",229321,-0.00549308,397,0.00614439324116745
"793",257576,-0.120769,61,0.0204081632653061
"794",256595,-0.0186915,174,0.00523560209424112
"795",126175,-0.0150569,68,0.00923076923076938
"797",189864,-0.0867586,124,0.000581733566026643
"798",256690,-0.0463757,118,0.00169204737732664
"799",172899,-0.0359927,134,0.0152284263959391
"800",241594,-0.00317696,761,0.00669642857142849
"802",255937,-0.0689757,55,0.0101010101010102
"803",255049,-0.105995,72,0.0101010101010102
"804",174103,-0.0382449,524,0.00122100122100111
"805",270887,-0.00117837,139,0.00169204737732664
"806",172643,-0.0569449,122,0.00510204081632648
"807",140545,-0.00627966,3,0.00502512562814073
"808",170538,-0.0166654,255,0.014543339150669
"809",257463,-0.0744701,134,0.00510204081632648
"810",170440,-0.0329456,112,0.0104166666666667
"811",128266,-0.0119094,30,0.0101010101010102
"812",242317,-0.085496,94,0
"813",144632,-0.0272907,266,0.00102564102564118
"814",240710,-0.00784262,50,0.00502512562814073
"815",144431,-0.0164515,305,0.000321440051430533
"816",188960,-0.0556653,51,0
"817",158901,-0.00101681,124,0.0104166666666667
"818",187455,-0.00576873,161,0
"819",225336,-0.0369898,29,0.0101010101010102
"820",242930,-0.0446467,45,0.00169204737732664
"821",113038,-0.000531572,63,0.00169204737732664
"822",144505,-0.166622,34,0.0101010101010102
"823",289730,-0.0122123,276,0.000321440051430533
"824",273697,-0.000224516,72,0.0101010101010102
"825",112847,-0.0824247,44,0.00102564102564118
"826",113597,-0.0695999,150,0.0152284263959391
"827",242365,-0.000794577,41,0.00502512562814073
"828",155669,-0.0063386,139,0.0152284263959391
"829",256777,-0.00680482,67,0.00169204737732664
"830",225116,-0.119418,166,0.0189473684210526
"831",143171,-0.00136762,18,0.00502512562814073
"832",240920,-0.125113,42,0.00502512562814073
"833",285154,-0.0168738,109,0
"834",141664,-0.315755,161,0.00510204081632648
"835",272794,-0.0486497,127,0.00260416666666652
"836",140834,-0.0498097,216,0.00614439324116745
"837",114404,-0.0037716,145,0.00102564102564118
"838",273631,-0.0157721,94,0.0101010101010102
"839",255242,-0.0686494,200,0.00523560209424112
"840",286847,-0.0136136,355,0.000740192450037092
"841",256426,-0.124239,13,0.0101010101010102
"842",155846,-0.0107677,106,0.00102564102564118
"843",170326,-0.0862369,33,0.00502512562814073
"847",144144,-0.0712774,49,0.0101010101010102
"848",229389,-0.0569078,48,0.0204081632653061
"849",213565,-0.00247617,81,0.0101010101010102
"850",227059,-0.0331273,27,0.00502512562814073
"851",128568,-0.00170418,380,0.0260366441658633
"852",156372,-5.05121e-05,25,0.0101010101010102
"853",212441,-0.0250045,164,0.000740192450037092
"854",172201,-0.0345609,79,0
"855",225072,-0.0258016,30,0.00169204737732664
"856",271092,-0.0310432,219,0.014543339150669
"857",129064,-0.0112126,50,0.0152284263959391
"858",142365,-0.0183626,178,0.00666173205033316
"859",213564,-0.00569451,81,0.0101010101010102
"860",241215,-0.0276445,19,0.0101010101010102
"861",172421,-0.00254249,16,0.00502512562814073
"862",210218,-0.0122085,69,0.0101010101010102
"863",125694,-0.0327456,177,0.00343642611683848
"865",140816,-0.0129129,34,0.00502512562814073
"866",186052,-0.00376352,204,0.000481000481000526
"867",243318,-0.000380896,8,0.00502512562814073
"868",172059,-0.039645,197,0
"869",240804,-0.0522024,215,0
"870",112211,-0.091657,62,0
"871",257306,-0.000533694,51,0.0101010101010102
"872",229994,-0.142331,126,0.0104166666666667
"873",141474,-0.00532735,148,0.0185048112509255
"874",257412,-0.138846,169,0.00709219858156029
"875",228919,-0.104964,54,0.00502512562814073
"876",227662,-0.0510384,27,0
"877",273161,-0.0006129,444,0.00900900900900903
"878",259108,-0.0336212,165,0.00432900432900429
"879",185348,-0.0237294,52,0.0101010101010102
"880",173974,-0.0548414,323,0.00210526315789494
"881",113402,-0.0141286,378,0.0384024577572964
"882",144823,-0.0208096,98,0.00502512562814073
"883",285324,-0.11212,14,0
"884",142663,-0.0106783,135,0.0137457044673539
"885",188634,-0.121176,81,0.0152284263959391
"886",225358,-0.0269291,145,0.00260416666666652
"887",214541,-0.0698263,38,0.00502512562814073
"888",211411,-0.0680486,102,0.00169204737732664
"889",155448,-0.183725,18,0.00502512562814073
"890",185811,-0.044159,168,0
"891",186972,-0.0110488,17,0.0101010101010102
"892",173181,-8.29386e-06,81,0.00502512562814073
"893",114839,-0.0778144,100,0.00102564102564118
"895",172227,-0.000140996,59,0
"896",186748,-0.048071,105,0.0101010101010102
"897",140686,-0.0011705,359,0.0443262411347515
"898",212880,-0.0919212,180,0.00432900432900429
"899",110927,-0.0152813,284,0.00523560209424112
"900",126371,-0.0121126,703,0.00313725490196093
"901",144796,-0.0147039,376,0.000481000481000526
"902",174856,-0.280421,118,0.0256410256410257
"903",228140,-0.0477607,123,0.0104166666666667
"904",186461,-0.000923043,513,0.00102145045965263
"905",243412,-0.00962138,99,0
"906",127620,-0.0449236,57,0.0101010101010102
"908",274392,-0.0294972,51,0.00502512562814073
"909",187812,-0.0209389,35,0.00510204081632648
"910",114848,-0.104711,9,0.00502512562814073
"911",271262,-0.0830617,243,0.0285049447353112
"912",189166,-0.00201986,41,0.00502512562814073
"913",270203,-0.0123642,346,0.000411353352529842
"914",174275,-0.0208998,602,0.012549019607843
"915",273634,-0.00195661,127,0.00260416666666652
"916",229881,-0.00993429,51,0.0101010101010102
"917",255450,-0.0369926,18,0.00502512562814073
"919",185283,-0.0536795,139,0.0185048112509255
"920",174868,-0.000698762,159,0.00510204081632648
"921",144396,-0.0108628,356,0.000481000481000526
"922",129819,-0.00058876,152,0
"923",129239,-0.0309564,476,0.00614439324116745
"924",212929,-0.116739,202,0.0234374999999998
"925",229348,-0.057024,22,0.00502512562814073
"926",126382,-0.0107946,122,0.00923076923076938
"927",213648,-0.0158906,153,0
"929",210837,-0.036575,193,0
"930",155451,-0.0301429,203,0.00260416666666652
"931",126466,-0.010276,142,0.00102564102564118
"932",113563,-0.12568,90,0.00169204737732664
"933",129787,-0.0261173,42,0.0101010101010102
"934",157918,-0.00299088,240,0.0185048112509255
"935",274600,-0.0313687,18,0.00502512562814073
"936",189957,-0.068335,170,0.00523560209424112
"939",288142,-0.06723,159,0.00510204081632648
"940",213977,-9.08349e-05,47,0.00169204737732664
"942",289318,-0.19541,28,0.00502512562814073
"943",210583,-0.00169825,173,0.00169204737732664
"944",213012,-0.000840787,27,0.00502512562814073
"945",228475,-0.129934,59,0.0152284263959391
"946",255351,-0.00839297,80,0.00102564102564118
"948",274990,-0.0250575,85,0.00169204737732664
"949",126623,-0.0575209,61,0
"950",155349,-0.00999287,8,0.00502512562814073
"951",171172,-0.00201796,26,0.00502512562814073
"952",244037,-0.000827336,73,0.00502512562814073
"953",289973,-0.31445,86,0
"954",258026,-0.00379324,312,0.0104166666666667
"956",289467,-0.22966,43,0.00502512562814073
"957",140864,-0.00621999,195,0.0185048112509255
"958",126120,-0.0686236,38,0.00510204081632648
"959",141276,-0.00665257,82,0.00169204737732664
"960",243848,-0.154674,17,0.00502512562814073
"963",126031,-0.000149763,61,0.00502512562814073
"966",126464,-0.0557197,48,0.0101010101010102
"967",110198,-0.00204478,17,0.00502512562814073
"968",159440,-0.00830732,256,0.00102564102564118
"970",188661,-0.0177663,96,0
"971",174228,-0.0540199,67,0.00502512562814073
"972",141374,-0.0655168,37,0
"973",210669,-0.0666723,71,0.00169204737732664
"974",226725,-0.124888,30,0
"975",172436,-0.0448648,98,0.00169204737732664
"976",243219,-0.0191679,106,0.00169204737732664
"977",258664,-0.0578703,131,0.00510204081632648
"978",273954,-0.0222404,128,0
"979",243764,-0.102138,91,0.00169204737732664
"980",226163,-0.00185569,339,0.000581733566026643
"981",126238,-0.0113318,272,0
"985",112787,-0.0202056,73,0.00923076923076938
"986",242842,-0.000871269,25,0.0101010101010102
"987",243672,-0.00340379,99,0
"988",185092,-0.0363852,22,0.0101010101010102
"989",158372,-0.00508677,229,0.0137457044673539
"991",156894,-0.0688521,89,0.00169204737732664
"992",185510,-0.0864666,118,0.0101010101010102
"994",174049,-0.044671,47,0.00502512562814073
"995",129950,-0.00061641,145,0.00343642611683848
"996",113650,-0.00537423,45,0
"998",240472,-0.000445421,65,0
"999",189556,-0.0778498,196,0.0137457044673539
"1000",127603,-0.00586125,36,0.00502512562814073
"1001",144173,-0.0462905,64,0.00102564102564118
"1003",225330,-0.0068727,161,0
"1004",186701,-0.00687849,135,0.00102564102564118
"1005",229034,-0.00276346,54,0
"1006",144876,-0.00230615,346,0.000321440051430533
"1007",214897,-0.00286219,21,0.0101010101010102
"1008",271718,-0.0219873,70,0.00502512562814073
"1009",211143,-0.0816367,63,0.0101010101010102
"1010",225425,-0.00476381,296,0
"1011",288685,-0.0347205,148,0.000581733566026643
"1013",141740,-0.00661392,138,0.0137457044673539
"1014",227704,-0.0202118,75,0.0101010101010102
"1015",127928,-0.00223344,60,0.00502512562814073
"1016",225540,-0.0256666,148,0
"1017",143409,-0.00718732,95,0.00169204737732664
"1018",241255,-0.00200028,71,0.00260416666666652
"1019",241383,-0.0149658,284,0.00260416666666652
"1021",185512,-0.00219903,85,0
"1022",111280,-0.00712473,50,0.0101010101010102
"1023",144427,-0.000878985,20,0.00502512562814073
"1024",129604,-0.0241046,30,0.0101010101010102
"1025",274978,-0.00199657,140,0.00432900432900429
"1026",171422,-0.00506015,72,0.00502512562814073
"1027",243905,-0.186743,69,0.00169204737732664
"1029",212988,-0.224276,27,0.00502512562814073
"1030",173866,-0.0856487,124,0.000581733566026643
"1031",212556,-0.0182891,160,0
"1032",129393,-0.0294441,289,0.00523560209424112
"1033",141445,-0.100848,12,0.00502512562814073
"1035",129441,-0.000125026,152,0
"1036",112475,-0.0797559,151,0.0102838338132457
"1037",156953,-0.00186746,290,0.0234374999999998
"1038",270598,-0.128711,106,0.00502512562814073
"1039",244986,-0.0642835,90,0.00102564102564118
"1040",110636,-0.17272,14,0.00502512562814073
"1041",227720,-0.119696,263,0.000411353352529842
"1042",113630,-0.0134038,39,0
"1043",273517,-0.148025,154,0.0101010101010102
"1045",244586,-0.0201434,475,0.000321440051430533
"1046",272614,-0.0424137,161,0.0152284263959391
"1047",226080,-0.00225485,27,0.00502512562814073
"1048",187650,-0.000594194,119,0.00102564102564118
"1050",255018,-0.0759908,101,0.00169204737732664
"1051",213605,-1.97306e-05,252,0.000481000481000526
"1052",114374,-0.151748,27,0.00502512562814073
"1053",256095,-0.000339122,80,0.0101010101010102
"1054",172245,-0.00036468,79,0
"1055",257540,-0.0446101,21,0.0101010101010102
"1056",140286,-0.00125346,20,0.00502512562814073
"1057",112533,-0.0850064,72,0.00169204737732664
"1058",273503,-0.012898,32,0.00502512562814073
"1059",174131,-0.00731622,117,0.0104166666666667
"1060",274415,-0.00898246,11,0.00502512562814073
"1061",214883,-0.0257508,89,0.000581733566026643
"1062",186509,-0.00717917,164,0.00210526315789494
"1063",174392,-0.0114115,378,0.000360360360360468
"1064",155850,-0.200667,84,0.0204081632653061
"1065",243182,-0.00855627,64,0.00169204737732664
"1066",158830,-0.00391964,80,0.00502512562814073
"1067",257342,-0.011345,53,0.0101010101010102
"1068",174010,-0.0592351,26,0.00502512562814073
"1069",289181,-0.136948,148,0.00210526315789494
"1070",256529,-0.136783,82,0.00502512562814073
"1073",288802,-0.00972327,9,0.00502512562814073
"1075",256239,-0.283659,174,0.00523560209424112
"1076",142523,-0.115178,106,0.00502512562814073
"1077",243739,-0.00324669,18,0.00502512562814073
"1078",172603,-0.0238903,45,0.0152284263959391
"1079",226782,-0.201838,55,0.00502512562814073
"1080",241876,-0.270331,52,0.00169204737732664
"1081",271050,-0.00161268,226,0.0285049447353112
"1082",258001,-0.00294351,86,0
"1083",158955,-0.0286795,46,0.0101010101010102
"1085",172058,-0.0960702,243,0.000581733566026643
"1087",227669,-0.0106241,60,0.00502512562814073
"1088",142987,-0.0206169,300,0.00370218017276847
"1089",257664,-0.0333959,78,0.00510204081632648
"1090",158821,-0.00612143,34,0.00502512562814073
"1091",142189,-0.0120444,96,0.00510204081632648
"1092",288609,-0.00199752,28,0
"1093",110539,-0.11907,224,0.00210526315789494
"1094",188987,-0.0641869,124,0.00343642611683848
"1095",210004,-0.0406352,160,0.00169204737732664
"1096",289497,-0.0193416,75,0.00169204737732664
"1098",112136,-0.0485834,45,0.00502512562814073
"1099",287146,-0.0382216,88,0.0256410256410257
"1100",127614,-0.00260706,247,0.00260416666666652
"1101",226130,-5.74862e-05,262,0.00210526315789494
"1102",225111,-0.00279482,37,0.00502512562814073
"1103",242558,-0.0379232,218,0.00177304964538982
"1104",125742,-0.0101386,87,0.0152284263959391
"1105",127947,-0.0601776,57,0.0101010101010102
"1106",157864,-0.0151684,43,0.00502512562814073
"1107",273870,-0.0104858,56,0.0101010101010102
"1109",112974,-0.0116189,46,0.0101010101010102
"1110",272411,-0.0234879,108,0.00260416666666652
"1112",114790,-0.00452567,108,0.000740192450037092
"1113",140410,-0.0742691,95,0.00510204081632648
"1114",157173,-0.123521,68,0.00502512562814073
"1115",258754,-0.0180456,10,0.0101010101010102
"1116",225452,-0.226806,61,0.00502512562814073
"1117",289049,-0.122841,56,0.00502512562814073
"1118",255081,-0.0189375,111,0.0362694300518134
"1119",226388,-0.0017329,125,0.00169204737732664
"1120",212442,-0.0594965,421,0.017777777777778
"1121",129135,-0.0356166,89,0.00510204081632648
"1122",112380,-0.0762763,46,0.0101010101010102
"1123",271365,-0.00942469,148,0.00102564102564118
"1124",210071,-0.298433,214,0.00210526315789494
"1125",129389,-0.0225746,119,0.00502512562814073
"1127",227028,-0.171418,21,0
"1128",155711,-0.00125991,210,0.00260416666666652
"1129",229901,-0.405893,78,0.00510204081632648
"1130",158349,-0.0819417,94,0.0204081632653061
"1131",188253,-0.0115862,21,0.00502512562814073
"1133",244547,-0.00721543,78,0.0204081632653061
"1135",229683,-0.00539387,59,0.0101010101010102
"1136",272894,-0.026322,51,0.00502512562814073
"1138",241855,-0.200616,22,0
"1139",155165,-0.0278817,202,0.000740192450037092
"1141",173073,-0.142297,77,0.00502512562814073
"1142",126912,-0.0733172,71,0.00502512562814073
"1143",288014,-0.000698525,218,0.000740192450037092
"1144",285398,-0.110268,101,0.000740192450037092
"1145",242690,-2.04792e-05,8,0.00502512562814073
"1146",187936,-0.070515,126,0.00102564102564118
"1147",225532,-0.0236471,65,0.0101010101010102
"1149",240880,-2.58391e-05,64,0
"1150",114968,-0.069833,6,0.00502512562814073
"1154",142199,-0.000967873,74,0.00502512562814073
"1156",159059,-0.00591464,38,0.00923076923076938
"1158",286808,-0.00121087,89,0
"1160",213835,-0.15764,48,0
"1161",127519,-0.0458906,67,0.0137457044673539
"1162",156400,-0.0194545,44,0.0101010101010102
"1163",212387,-0.0047672,183,0.000581733566026643
"1166",210369,-0.0713997,36,0.0101010101010102
"1167",110705,-0.00495885,80,0.00510204081632648
"1168",242600,-0.00423799,46,0.0101010101010102
"1169",240735,-0.00784644,66,0.00169204737732664
"1170",289365,-0.00110027,133,0.00709219858156029
"1171",271700,-0.0880068,53,0.00502512562814073
"1172",272757,-0.0163076,47,0.00169204737732664
"1173",258800,-0.00859192,162,0.00666173205033316
"1175",211609,-0.0164995,63,0.00343642611683848
"1178",144173,-0.0814534,18,0.00502512562814073
"1179",144517,-0.0748526,51,0.00502512562814073
"1180",111047,-0.00964469,196,0.00102564102564118
"1181",257002,-0.00179965,235,0.00523560209424112
"1182",141522,-0.00395292,190,0.0204081632653061
"1183",212752,-0.0774259,83,0.00343642611683848
"1184",243844,-0.011635,13,0
"1187",157693,-0.0978701,89,0.00169204737732664
"1188",189865,-0.0207074,68,0.0152284263959391
"1189",126770,-0.0253882,61,0.00502512562814073
"1190",171843,-0.000229862,22,0.00502512562814073
"1191",185668,-0.0249748,294,0.0102838338132457
"1193",272915,-0.0011907,42,0.00502512562814073
"1195",213185,-0.000136789,42,0
"1196",285244,-0.0813576,179,0.0189473684210526
"1197",171643,-0.0226114,38,0.00510204081632648
"1198",172572,-0.136578,129,0.00502512562814073
"1200",186500,-0.0120252,206,0.00260416666666652
"1201",240779,-0.056494,229,0.0185048112509255
"1202",227750,-0.0848691,27,0.00502512562814073
"1204",113865,-0.0505587,41,0.0101010101010102
"1205",126099,-0.01299,48,0.0101010101010102
"1206",258030,-0.0721322,50,0.0204081632653061
"1207",228157,-0.179024,87,0.0152284263959391
"1209",156671,-0.0130572,25,0
"1210",214231,-0.0284373,17,0.00502512562814073
"1211",289805,-0.00159601,59,0.0101010101010102
"1212",144425,-0.036841,95,0.00169204737732664
"1213",187732,-0.00878362,120,0.0152284263959391
"1215",113949,-0.0370822,85,0.0101010101010102
"1216",158791,-0.00855154,520,0.00102145045965263
"1217",185743,-0.0807781,26,0.00502512562814073
"1218",171491,-0.090401,104,0.00102564102564118
"1220",240812,-0.0191315,134,0.00510204081632648
"1221",214459,-0.00370072,247,0.0471204188481675
"1222",244149,-0.000911038,92,0.00102564102564118
"1223",286688,-0.0414341,104,0.00923076923076938
"1224",242579,-0.039844,75,0
"1225",156857,-0.0735333,36,0
"1226",170651,-0.070653,85,0.0204081632653061
"1227",229202,-0.00368677,58,0.0152284263959391
"1228",273780,-0.00873331,85,0
"1229",274701,-0.0337182,51,0.00502512562814073
"1231",172950,-4.24168e-06,102,0.0104166666666667
"1232",158162,-0.0781224,25,0
"1233",228568,-0.126566,18,0.00502512562814073
"1234",141264,-6.65464e-05,91,0.00169204737732664
"1236",285869,-0.00240933,60,0.00169204737732664
"1237",172611,-0.0468565,162,0.00510204081632648
"1238",241808,-0.0101281,8,0.00502512562814073
"1239",286609,-0.0413677,166,0.00210526315789494
"1241",212732,-0.0145709,63,0.00169204737732664
"1243",142553,-0.0101923,43,0.00502512562814073
"1244",129354,-0.00166377,86,0.00502512562814073
"1246",258045,-0.0441782,114,0.00169204737732664
"1249",186342,-0.0290747,196,0.000581733566026643
"1250",159297,-0.0564618,231,0.0137457044673539
"1251",140790,-0.00124783,46,0.00502512562814073
"1252",259344,-0.0927452,58,0.00169204737732664
"1254",127301,-0.00441942,51,0.00169204737732664
"1255",187622,-0.0200554,49,0.0152284263959391
"1256",242685,-0.0342444,91,0.00510204081632648
"1257",228893,-0.155599,125,0.0137457044673539
"1258",156895,-0.0683081,58,0.00502512562814073
"1259",211596,-0.0235594,169,0.00102564102564118
"1261",227116,-0.0198862,51,0.0204081632653061
"1262",242245,-0.00142891,19,0.0101010101010102
"1263",155805,-0.0999802,72,0.00510204081632648
"1264",211933,-0.00101148,28,0.0101010101010102
"1268",212967,-0.000979924,163,0.00510204081632648
"1269",212596,-0.0362952,70,0.00169204737732664
"1270",256400,-0.00779732,24,0.00502512562814073
"1271",144445,-0.029085,100,0.00102564102564118
"1273",143940,-0.0324297,76,0.00510204081632648
"1275",174855,-0.0272346,47,0.00502512562814073
"1276",113121,-0.00228203,32,0.0101010101010102
"1277",285187,-0.00204191,100,0.000740192450037092
"1278",213939,-0.0585183,250,0.0138248847926267
"1279",144529,-0.00953387,169,0.000581733566026643
"1280",242752,-0.000115386,65,0.0101010101010102
"1282",213114,-0.0195309,27,0
"1283",214310,-0.0200138,42,0
"1286",188957,-0.00262385,50,0.00169204737732664
"1288",142850,-0.0583702,51,0.0152284263959391
"1289",243899,-0.195592,125,0.0104166666666667
"1290",125359,-0.00133057,55,0
"1291",170183,-0.0239858,45,0.0152284263959391
"1292",226249,-0.0608103,24,0.00502512562814073
"1293",213491,-0.0279691,97,0.00169204737732664
"1294",174030,-2.8718e-05,87,0.00169204737732664
"1295",214724,-0.000246679,28,0.0101010101010102
"1296",112353,-0.0681222,19,0
"1297",173516,-0.000297702,23,0.00502512562814073
"1298",288619,-0.126013,74,0.0152284263959391
"1300",242570,-0.0179842,14,0.00502512562814073
"1301",157148,-0.0384315,46,0.0101010101010102
"1302",185414,-0.180334,191,0.00169204737732664
"1303",272194,-0.0344213,32,0.00502512562814073
"1304",272504,-0.0145206,8,0.00502512562814073
"1305",286493,-0.0566767,48,0.0101010101010102
"1306",226920,-0.265451,96,0.0101010101010102
"1307",287969,-0.0259174,128,0.00169204737732664
"1309",126318,-0.0337423,97,0.00502512562814073
"1310",286618,-0.023072,9,0.00502512562814073
"1311",229948,-0.00128284,69,0
"1312",259333,-0.00816478,54,0.00169204737732664
"1314",128272,-0.00010562,112,0.0137457044673539
"1315",186146,-0.00011965,111,0.00169204737732664
"1316",126413,-0.056022,38,0.00510204081632648
"1318",111839,-0.000999317,75,0.000581733566026643
"1319",241115,-0.0449362,224,0.00523560209424112
"1320",157559,-0.0484378,212,0.0185048112509255
"1321",259112,-6.41116e-05,244,0.00523560209424112
"1322",213721,-0.00187926,57,0.00169204737732664
"1323",125342,-0.273816,39,0.00502512562814073
"1324",155060,-0.00147881,18,0.00502512562814073
"1325",113442,-0.0135049,117,0
"1326",287455,-0.017338,54,0.00502512562814073
"1327",287550,-0.0102023,82,0.00510204081632648
"1328",241018,-0.0019856,32,0.00169204737732664
"1330",189547,-0.0628077,132,0.0137457044673539
"1331",125396,-0.0395357,30,0.00502512562814073
"1332",210680,-0.00607137,51,0
"1333",141532,-0.003837,88,0.00502512562814073
"1334",214015,-0.0850136,86,0.00343642611683848
"1335",112439,-0.0106923,38,0.0101010101010102
"1336",225455,-0.133352,21,0
"1339",242795,-0.105217,36,0.00502512562814073
"1343",286453,-0.0103394,46,0.00502512562814073
"1344",257432,-0.000407084,168,0.00709219858156029
"1345",256640,-0.00196549,86,0
"1346",170697,-0.00247134,80,0
"1347",174275,-0.00792278,262,0.00510204081632648
"1348",129008,-0.0156156,47,0.00502512562814073
"1349",143698,-0.0477679,13,0.00502512562814073
"1350",189146,-4.61644e-05,58,0.0152284263959391
"1351",271614,-0.0206661,28,0.0152284263959391
"1354",129164,-0.06747,36,0.0101010101010102
"1355",112003,-0.0123931,28,0.00502512562814073
"1356",188352,-0.0124858,109,0.00102564102564118
"1357",270763,-7.49346e-05,111,0.00510204081632648
"1358",258466,-0.0325736,13,0.00502512562814073
"1359",140590,-0.015507,79,0.0101010101010102
"1360",214337,-0.0172448,54,0.00169204737732664
"1361",226301,-0.00138292,65,0.00169204737732664
"1362",242881,-0.00203206,148,0.00923076923076938
"1363",242723,-0.0534357,220,0.00169204737732664
"1364",128461,-0.112725,30,0.0101010101010102
"1365",212028,-0.0012039,155,0.00102564102564118
"1366",287050,-0.00392646,89,0
"1367",210580,-0.0136219,63,0.0185048112509255
"1368",210653,-0.0127533,55,0.00502512562814073
"1369",143599,-0.00698772,57,0
"1370",186102,-0.00729318,40,0.00502512562814073
"1371",211788,-0.0653516,98,0.000740192450037092
"1372",173741,-2.12092e-05,11,0.00502512562814073
"1373",155116,-0.00997667,47,0.0309278350515466
"1374",128106,-0.0136288,149,0.000740192450037092
"1375",128845,-0.00855674,47,0.00502512562814073
"1376",272441,-0.312153,63,0.00510204081632648
"1378",258840,-0.00735287,45,0.0101010101010102
"1380",128746,-0.0602179,52,0.00502512562814073
"1381",289387,-0.000198644,28,0
"1382",187277,-0.211572,74,0.0152284263959391
"1383",258607,-0.00176816,153,0.000581733566026643
"1384",140192,-0.00314432,51,0.0101010101010102
"1386",144812,-0.0370284,28,0.00502512562814073
"1387",173596,-0.0556923,29,0.00502512562814073
"1388",187229,-0.0719351,50,0.00169204737732664
"1389",188681,-0.0200248,173,0.000481000481000526
"1390",257318,-0.0107175,84,0
"1391",259279,-4.49507e-05,78,0.00510204081632648
"1392",226837,-0.0174729,71,0.00502512562814073
"1393",272789,-0.162086,83,0.00502512562814073
"1395",228049,-0.0530466,53,0.00343642611683848
"1396",189421,-0.00204606,63,0.0101010101010102
"1397",143076,-0.0120012,12,0.00502512562814073
"1399",273040,-0.000270126,16,0.00502512562814073
"1400",142769,-0.180576,63,0.00502512562814073
"1401",243001,-0.00213814,82,0.00169204737732664
"1402",144386,-0.00119701,109,0.00510204081632648
"1403",126275,-0.000160843,62,0
"1404",110786,-0.0159587,14,0.00502512562814073
"1405",226900,-0.0511425,68,0.00923076923076938
"1406",227962,-0.0975312,183,0.00102564102564118
"1407",225686,-0.0636341,59,0.00102564102564118
"1409",271152,-0.0629023,139,0.000740192450037092
"1410",187600,-0.022786,46,0
"1413",288267,-0.0579333,90,0
"1414",289781,-0.00215929,37,0.00502512562814073
"1415",187350,-0.0339868,39,0
"1416",158410,-0.00579895,74,0.0204081632653061
"1417",256422,-0.0294421,45,0.00502512562814073
"1418",156433,-0.0503561,33,0.00502512562814073
"1419",214135,-0.179608,20,0.00502512562814073
"1420",140846,-0.0749772,201,0.014543339150669
"1421",172179,-0.0289489,30,0.00169204737732664
"1422",211546,-0.0207989,53,0.00169204737732664
"1423",214711,-0.166621,63,0
"1425",288603,-0.083442,76,0.00510204081632648
"1427",242545,-0.171669,8,0.00502512562814073
"1429",255650,-0.058222,80,0.00102564102564118
"1430",141670,-0.0214634,35,0
"1432",228969,-0.072287,26,0.00502512562814073
"1433",272345,-0.00471253,51,0.00169204737732664
"1435",186914,-0.00186179,122,0.000581733566026643
"1436",170812,-0.0113814,117,0.0101010101010102
"1437",112509,-0.0531641,11,0.0152284263959391
"1438",240036,-0.174489,29,0.00502512562814073
"1439",142977,-0.121606,21,0.00502512562814073
"1440",210496,-0.0916303,93,0.00666173205033316
"1443",142212,-0.0930696,82,0.0101010101010102
"1445",127494,-0.00283496,251,1.11022302462516e-16
"1446",270596,-0.0319129,135,0.0104166666666667
"1447",285645,-0.011516,154,0
"1448",140372,-0.00672235,33,0
"1449",127288,-0.00939278,87,0.0152284263959391
"1451",189678,-0.204541,41,0.00502512562814073
"1452",289339,-0.0321829,101,0.0101010101010102
"1454",187732,-0.0135797,76,0.00169204737732664
"1455",126573,-0.0487616,42,0.0101010101010102
"1456",140598,-0.00267257,155,0.000740192450037092
"1457",140699,-0.251618,11,0.00502512562814073
"1458",156935,-0.00909856,79,0.00502512562814073
"1461",172721,-0.114774,20,0.00502512562814073
"1462",187335,-0.00264025,45,0.00502512562814073
"1465",242398,-0.00674088,88,0.0101010101010102
"1467",173206,-0.0174402,121,0.00666173205033316
"1468",286434,-5.21312e-05,53,0.00502512562814073
"1469",143977,-0.046973,18,0.0101010101010102
"1471",225481,-6.90699e-05,19,0.00502512562814073
"1472",240203,-0.00374371,37,0.00502512562814073
"1473",271549,-0.0198226,52,0.00169204737732664
"1476",128220,-0.00823283,37,0.0101010101010102
"1479",285743,-0.00189689,33,0.00102564102564118
"1481",270580,-0.00239109,64,0.00502512562814073
"1482",244988,-0.010208,70,0.00502512562814073
"1484",144340,-0.0188171,133,0.0152284263959391
"1486",185235,-0.0854239,81,0
"1487",271415,-0.0127364,58,0.0204081632653061
"1489",273991,-0.0563872,56,0.0101010101010102
"1491",257967,-0.00508991,10,0.0101010101010102
"1492",274084,-0.0560491,56,0.00169204737732664
"1493",285070,-0.000695373,95,0.00169204737732664
"1494",143122,-0.00410962,57,0
"1497",243842,-0.0194003,20,0.0101010101010102
"1499",274747,-0.00571005,16,0.00502512562814073
"1500",127465,-0.00311327,38,0.00510204081632648
"1501",214565,-0.0721866,46,0.00502512562814073
"1502",142907,-0.0042127,18,0.0101010101010102
"1503",140864,-0.0195649,13,0.0101010101010102
"1506",259506,-0.00462864,91,0.00102564102564118
"1507",227303,-0.262411,94,0.00502512562814073
"1508",285349,-0.361132,5,0.00502512562814073
"1512",287755,-0.00153234,104,0.0101010101010102
"1514",211384,-0.00516387,71,0.00169204737732664
"1515",188848,-0.00486062,69,0.0152284263959391
"1516",110081,-0.101134,83,0
"1519",172154,-0.00014136,184,0.0137457044673539
"1520",187413,-0.0384488,62,0.0152284263959391
"1521",187268,-0.00943464,21,0.00502512562814073
"1522",214604,-0.0168728,42,0
"1525",225872,-0.00954941,93,0.00510204081632648
"1528",229477,-0.00123796,135,0.00923076923076938
"1529",110126,-0.00290468,32,0.00169204737732664
"1530",212843,-5.73624e-05,34,0
"1531",112483,-0.0904629,69,0.00502512562814073
"1532",244258,-0.0366081,65,0.0152284263959391
"1535",157258,-0.150191,50,0.0152284263959391
"1536",125991,-0.00984996,105,0
"1537",186954,-0.0808941,73,0.00502512562814073
"1538",187188,-0.0102777,30,0.00510204081632648
"1540",213575,-0.0121715,42,0.00502512562814073
"1544",125769,-0.154019,65,0.00169204737732664
"1545",288474,-0.0653918,104,0.00102564102564118
"1546",140200,-0.0354653,12,0.00502512562814073
"1547",186593,-0.0402999,27,0.0101010101010102
"1548",255171,-0.00864408,35,0
"1549",287689,-0.0532743,30,0.00502512562814073
"1551",271067,-0.0713727,49,0.00102564102564118
"1552",142028,-0.0520851,14,0.0152284263959391
"1553",259085,-0.0832846,78,0.00510204081632648
"1554",127521,-0.131873,50,0.0152284263959391
"1557",274635,-0.0167082,33,0.00502512562814073
"1558",170151,-0.0218724,45,0.0152284263959391
"1560",140869,-0.0334884,129,0.0185048112509255
"1561",186188,-0.0171314,144,0
"1562",285948,-0.00499802,50,0.00502512562814073
"1563",156158,-0.012274,33,0.00502512562814073
"1565",126886,-0.0404963,117,0.00923076923076938
"1569",113552,-0.0567243,83,0
"1570",113264,-0.111425,9,0.00502512562814073
"1571",114443,-0.0521285,96,0
"1573",288550,-0.0208635,113,0.0101010101010102
"1574",270600,-0.0740875,62,0.0101010101010102
"1575",174465,-0.0316935,12,0.00502512562814073
"1576",213295,-0.00210381,20,0.00502512562814073
"1578",271873,-0.0069513,100,0
"1579",187676,-0.0614344,42,0
"1581",226141,-0.0524305,50,0
"1582",241923,-0.0259127,30,0.0101010101010102
"1586",286774,-0.108634,46,0.00502512562814073
"1587",188535,-0.00291807,16,0.0152284263959391
"1588",210698,-0.11127,151,0.00260416666666652
"1589",289851,-0.0238892,72,0.00169204737732664
"1592",143059,-0.0736881,82,0.0101010101010102
"1595",227866,-0.0068625,11,0.00502512562814073
"1596",289581,-0.000679554,69,0.00923076923076938
"1597",285040,-0.00602649,5,0.0101010101010102
"1599",258679,-0.0169299,10,0.0101010101010102
"1602",173277,-0.00598202,3,0.00502512562814073
"1603",186663,-0.0316716,71,0.00502512562814073
"1604",125556,-0.0290084,29,0
"1605",258697,-0.0815777,41,0.0101010101010102
"1606",185600,-0.0352764,15,0.00502512562814073
"1609",172874,-0.00044328,5,0.00502512562814073
"1610",273315,-0.0207973,40,0.0152284263959391
"1613",173511,-0.000151342,38,0.00169204737732664
"1615",289802,-0.0198754,34,0.00502512562814073
"1616",143825,-0.022562,38,0.0101010101010102
"1618",226634,-0.0697916,21,0
"1619",226169,-0.057493,62,0.0101010101010102
"1621",255125,-0.0051381,23,0
"1623",271801,-0.0195275,28,0.0152284263959391
"1624",271671,-0.000426564,47,0.00502512562814073
"1627",170386,-0.0167461,60,0.0101010101010102
"1628",142746,-0.0149342,34,0
"1630",126054,-0.0134559,69,0.0101010101010102
"1631",256597,-0.0806792,53,0
"1632",188845,-0.0195937,92,0
"1633",288728,-0.185279,14,0
"1634",212879,-0.00131681,218,0.0235690235690235
"1636",129583,-0.0181486,99,0.0204081632653061
"1637",288121,-0.0425464,16,0.0101010101010102
"1638",225785,-0.0503028,105,0
"1639",229567,-0.0321837,28,0.00502512562814073
"1640",271486,-0.0283797,66,0.00502512562814073
"1641",158017,-0.0173866,54,0.00510204081632648
"1643",257845,-1.58579e-05,34,0.00502512562814073
"1644",259529,-0.000628759,41,0.00502512562814073
"1645",172074,-0.0054159,37,0.00169204737732664
"1646",256627,-0.000361508,10,0.0101010101010102
"1647",213796,-0.0786245,72,0.0101010101010102
"1648",242713,-0.0290787,55,0.00502512562814073
"1649",157382,-0.28747,96,0
"1650",225775,-0.0268803,54,0.0101010101010102
"1651",240669,-0.0214169,99,0.00102564102564118
"1652",144420,-0.162748,15,0.00502512562814073
"1654",112556,-0.0115385,5,0.0152284263959391
"1655",114649,-0.0737514,93,0.00102564102564118
"1657",112295,-0.0312217,8,0.00502512562814073
"1658",156585,-0.0596234,34,0.00502512562814073
"1659",228174,-0.00137475,94,0.0185048112509255
"1660",188326,-0.000347902,23,0.00502512562814073
"1661",144561,-0.174669,101,0.0204081632653061
"1662",289130,-0.0784381,101,0
"1663",143790,-0.0647228,79,0.00169204737732664
"1664",144976,-0.00976819,27,0.0101010101010102
"1665",289133,-0.0525813,46,0
"1666",127891,-0.0038438,18,0.00502512562814073
"1667",241235,-0.00299476,9,0.00502512562814073
"1669",174687,-0.000887961,14,0.00502512562814073
"1670",128655,-0.224297,11,0.00502512562814073
"1671",255357,-3.21591e-05,57,0
"1673",257726,-0.0882795,59,0.00169204737732664
"1676",127884,-0.0668881,43,0.0101010101010102
"1677",271246,-0.0118368,21,0.00502512562814073
"1678",111690,-0.00368185,24,0.00502512562814073
"1679",227720,-0.00797783,30,0.00502512562814073
"1680",243284,-0.125921,31,0.00502512562814073
"1681",113357,-0.0043608,103,0
"1683",288461,-0.00277308,21,0
"1684",112642,-0.0571212,25,0.00502512562814073
"1686",244478,-0.153089,46,0.0101010101010102
"1688",257735,-0.0320895,56,0.0152284263959391
"1689",228061,-0.0157219,71,0.00502512562814073
"1691",114426,-0.00169495,91,0.0204081632653061
"1693",174297,-0.00652638,77,0.00502512562814073
"1694",186541,-0.0923527,25,0.00502512562814073
"1695",274140,-0.0287825,182,0.000740192450037092
"1696",128581,-0.0475356,24,0.00502512562814073
"1697",288257,-0.00214597,47,0
"1698",210878,-0.00699324,22,0.00502512562814073
"1700",111011,-0.00388096,13,0.00502512562814073
"1702",229299,-0.0114141,105,0
"1707",126364,-0.0633313,47,0.00502512562814073
"1708",114480,-0.0130681,9,0.00502512562814073
"1709",214269,-0.0758305,77,0.00502512562814073
"1710",187797,-9.17241e-05,16,0.00502512562814073
"1713",189002,-0.103172,78,0.00923076923076938
"1714",272645,-0.00716926,4,0.00502512562814073
"1715",274221,-0.00106187,94,0.00510204081632648
"1717",144504,-0.0201198,34,0.00502512562814073
"1718",174853,-0.0593106,34,0.00502512562814073
"1719",289185,-0.266136,11,0.00502512562814073
"1721",112357,-1.72495e-06,44,0.0137457044673539
"1723",227922,-0.00113012,31,0.00502512562814073
"1724",210252,-0.0285611,5,0.00502512562814073
"1725",189953,-0.0724546,51,0.00169204737732664
"1726",256809,-0.0431936,50,0.0204081632653061
"1729",186215,-0.0957664,29,0.00502512562814073
"1730",127417,-0.0413774,30,0.0101010101010102
"1734",289547,-5.74063e-05,14,0.00502512562814073
"1735",286219,-0.00590007,41,0
"1739",287151,-0.0626704,96,0.0204081632653061
"1740",157771,-0.000228939,13,0.00502512562814073
"1741",140962,-0.0395903,41,0.00502512562814073
"1742",110700,-0.02699,29,0.0101010101010102
"1743",143801,-0.0013251,17,0.00502512562814073
"1747",126458,-0.048867,86,0.00502512562814073
"1748",213489,-0.01489,15,0.00502512562814073
"1750",144393,-0.0591007,15,0.00502512562814073
"1751",255413,-0.0157382,115,0.00102564102564118
"1753",127149,-5.08874e-05,25,0.00502512562814073
"1754",189909,-0.0409467,103,0
"1756",170753,-0.0254262,75,0
"1760",141316,-0.0162308,98,0.00510204081632648
"1762",244507,-0.0605386,88,0.00923076923076938
"1763",271067,-0.0136824,17,0.00502512562814073
"1764",288755,-0.281678,9,0.00502512562814073
"1767",187117,-0.000977017,59,0.00510204081632648
"1771",273275,-0.0512534,77,0.0152284263959391
"1772",285234,-0.021395,14,0.0101010101010102
"1774",242316,-0.00232802,17,0.00502512562814073
"1775",158864,-0.0443164,10,0.00502512562814073
"1777",186266,-0.00185026,42,0.00502512562814073
"1779",229385,-0.0119717,69,0.00502512562814073
"1780",114330,-0.00338202,10,0.00502512562814073
"1786",255021,-0.000399703,71,0.0101010101010102
"1788",155220,-0.0461142,15,0.0101010101010102
"1789",229947,-0.001652,37,0.00169204737732664
"1795",242985,-0.0102925,33,0.0152284263959391
"1796",244991,-0.123844,13,0.00502512562814073
"1797",157201,-0.000104306,52,0.00169204737732664
"1800",189968,-0.00590539,16,0.00502512562814073
"1802",188335,-0.0212438,49,0.00502512562814073
"1805",125025,-0.0440486,24,0.00502512562814073
"1807",189249,-0.0645734,15,0.00502512562814073
"1808",157183,-0.030105,1,0.00502512562814073
"1809",128493,-0.00555016,32,0.00510204081632648
"1810",227580,-0.297102,55,0.00502512562814073
"1812",141204,-0.0279486,16,0.00502512562814073
"1813",173491,-0.00661771,12,0.0101010101010102
"1815",259550,-0.0109299,21,0
"1816",170865,-3.70568e-07,49,0.00502512562814073
"1818",114436,-0.000140336,12,0.00502512562814073
"1819",225543,-0.103979,29,0.00502512562814073
"1820",155795,-0.0864019,8,0.00502512562814073
"1822",285631,-0.00677481,25,0.00502512562814073
"1823",288973,-0.0154711,16,0.0101010101010102
"1824",213169,-0.012521,26,0.00169204737732664
"1828",285325,-0.0239519,70,0.0101010101010102
"1829",128907,-0.0147363,24,0.00502512562814073
"1831",213234,-0.0898706,37,0.0256410256410257
"1832",157370,-0.0394245,16,0.0101010101010102
"1833",273241,-0.014001,5,0.00502512562814073
"1834",158420,-0.0283521,189,0.0137457044673539
"1835",143155,-0.177634,13,0.0101010101010102
"1840",271632,-0.0898613,34,0.00102564102564118
"1841",229646,-0.237813,24,0.0101010101010102
"1851",272076,-0.000990898,45,0.00502512562814073
"1853",171945,-0.0341204,3,0.00502512562814073
"1857",187486,-0.0116332,9,0.00502512562814073
"1858",272044,-0.0236318,47,0.00502512562814073
"1859",141268,-0.0296981,53,0.00502512562814073
"1861",258424,-0.0175792,51,0.0101010101010102
"1864",186573,-0.0770833,33,0.00923076923076938
"1865",288061,-0.0482579,32,0
"1868",156980,-0.105746,5,0.0101010101010102
"1872",128250,-0.0343769,15,0.00502512562814073
"1874",157882,-0.519916,16,0.00502512562814073
"1878",144796,-0.0185403,21,0.00502512562814073
"1879",213680,-0.00568059,43,0.00502512562814073
"1883",270052,-0.0488415,26,0.00502512562814073
"1884",125905,-0.00517798,17,0.00502512562814073
"1886",172347,-0.26213,20,0.00502512562814073
"1887",189019,-0.0401135,33,0
"1892",126505,-0.0448337,60,0.0152284263959391
"1894",255394,-0.123728,9,0.00502512562814073
"1895",243335,-0.0323869,63,0.00502512562814073
"1896",159226,-0.0904267,25,0.0152284263959391
"1899",226060,-0.0201118,18,0.00502512562814073
"1900",274348,-0.104421,30,0.00502512562814073
"1903",288963,-0.0147781,24,0.00502512562814073
"1904",226206,-0.0239425,35,0.00502512562814073
"1905",114378,-0.027065,31,0.00502512562814073
"1909",240963,-0.00364476,29,0.00502512562814073
"1910",186355,-0.00102116,45,0
"1911",172426,-0.0418208,2,0.00502512562814073
"1912",211312,-0.0548787,12,0.00502512562814073
"1914",211661,-0.399172,33,0.00502512562814073
"1916",128791,-0.228339,9,0.00502512562814073
"1918",271436,-0.0171848,102,0
"1922",258206,-0.00985913,43,0.00169204737732664
"1926",211507,-0.0960935,39,0.0204081632653061
"1927",213693,-0.0137182,37,0.0256410256410257
"1936",289584,-0.0165991,77,0.00169204737732664
"1937",155545,-0.000882071,36,0.00502512562814073
"1939",126157,-0.0475265,45,0.00502512562814073
"1941",170324,-0.0169621,67,0.00510204081632648
"1943",225933,-0.0762249,14,0.0101010101010102
"1944",273019,-0.00297696,13,0
"1946",129899,-0.0963478,28,0.0101010101010102
"1947",114469,-0.120602,4,0.00502512562814073
"1948",140127,-0.0148923,20,0.00502512562814073
"1949",229120,-0.0127831,30,0.00510204081632648
"1951",158122,-0.0598756,13,0.00502512562814073
"1953",285661,-0.00323453,23,0.00502512562814073
"1954",256443,-0.0137261,37,0.0101010101010102
"1955",140683,-0.0012537,48,0.00169204737732664
"1956",125417,-0.257998,33,0
"1958",185088,-0.000521596,2,0.00502512562814073
"1960",187863,-0.0468871,43,0.00502512562814073
"1961",113164,-0.00300637,44,0.0137457044673539
"1962",288001,-0.10395,61,0.00502512562814073
"1963",212018,-0.227094,36,0.00502512562814073
"1965",243621,-0.000244303,76,0.00923076923076938
"1967",155059,-0.0225507,24,0.00502512562814073
"1968",125012,-0.00477947,19,0.0152284263959391
"1970",156670,-0.0320474,85,0
"1971",114183,-0.0135458,51,0.00502512562814073
"1975",287797,-5.71719e-05,17,0.00502512562814073
"1976",289777,-0.230151,23,0.00502512562814073
"1977",226669,-0.175711,25,0.00502512562814073
"1978",142776,-0.0951507,86,0.0204081632653061
"1990",144227,-0.0397643,21,0.0101010101010102
"1992",242688,-0.00118499,12,0.00502512562814073
"1998",286709,-0.145558,16,0.0101010101010102
"1999",288391,-0.0217299,16,0.0101010101010102
"2000",258821,-8.63798e-05,64,0.00169204737732664
"2003",270075,-0.0570004,8,0.00502512562814073
"2008",159429,-0.0792094,5,0.00502512562814073
"2010",110491,-8.85056e-06,15,0.00502512562814073
"2011",270053,-0.0101979,14,0.00502512562814073
"2012",187792,-0.00394294,27,0.00502512562814073
"2016",128240,-0.0579165,10,0.00502512562814073
"2019",256429,-2.78643e-05,13,0
"2023",113055,-0.0838606,38,0.0101010101010102
"2024",170237,-0.00645125,30,0.0101010101010102
"2026",271912,-0.0756996,83,0.0101010101010102
"2028",189891,-0.00393481,62,0
"2029",186998,-0.160678,30,0.00502512562814073
"2034",255343,-0.0203481,20,0.0101010101010102
"2036",186027,-0.00997653,43,0.00102564102564118
"2037",255542,-0.000226342,21,0
"2038",286040,-0.0396692,26,0
"2047",210228,-0.00385406,7,0.00502512562814073
"2049",229277,-0.0212397,17,0.00502512562814073
"2050",242764,-0.000660059,15,0.00502512562814073
"2054",171058,-0.0203338,14,0.00502512562814073
"2055",156141,-0.00106423,15,0.00502512562814073
"2057",285785,-0.0218337,59,0.00169204737732664
"2059",272758,-0.0608102,23,0.00502512562814073
"2069",141988,-0.0182997,18,0.0101010101010102
"2070",273044,-0.000558822,26,0.0101010101010102
"2073",129660,-0.0104399,25,0.00502512562814073
"2076",241061,-0.0332093,30,0.0152284263959391
"2078",274078,-0.00266889,27,0.0101010101010102
"2079",241744,-0.00117026,18,0.00502512562814073
"2085",255755,-0.0769514,35,0.00502512562814073
"2086",156648,-0.000587437,17,0.0152284263959391
"2091",259533,-0.000657385,45,0.0101010101010102
"2095",186567,-0.012564,47,0.0101010101010102
"2100",272949,-0.223302,26,0.00502512562814073
"2101",256930,-0.00103039,25,0.0101010101010102
"2103",172574,-0.075224,9,0.0152284263959391
"2107",158067,-0.00149605,56,0
"2109",142922,-0.0529941,65,0
"2112",257860,-0.0178743,27,0.00502512562814073
"2116",273904,-0.00725745,11,0.00502512562814073
"2117",227456,-0.0169243,27,0.00502512562814073
"2120",189313,-0.00422961,22,0.00502512562814073
"2127",185124,-0.228578,32,0.0101010101010102
"2128",274866,-0.0666382,22,0.00502512562814073
"2129",185602,-0.109942,19,0.00502512562814073
"2131",144518,-0.0538772,28,0.00502512562814073
"2132",213792,-0.00868737,26,0.0101010101010102
"2134",129530,-9.77116e-05,8,0.00502512562814073
"2135",189689,-0.0473858,35,0.00502512562814073
"2137",210074,-0.00956059,6,0.00502512562814073
"2140",273863,-0.0471514,4,0.00502512562814073
"2144",113741,-0.0201854,37,0
"2145",227126,-0.00515265,33,0.0101010101010102
"2149",188240,-0.000663797,32,0
"2150",113381,-0.00553752,17,0.00502512562814073
"2156",213264,-0.0582838,16,0.00502512562814073
"2158",225918,-0.0226589,14,0.0101010101010102
"2159",271839,-0.147196,18,0.0101010101010102
"2165",258887,-0.258553,15,0.0101010101010102
"2168",213008,-0.217809,11,0.0101010101010102
"2175",225451,-0.036901,32,0.0152284263959391
"2177",225094,-0.00309318,15,0.00502512562814073
"2179",144887,-0.109582,5,0.0101010101010102
"2189",214791,-0.0315813,26,0.0101010101010102
"2200",144729,-0.00963954,10,0.00169204737732664
"2203",286819,-0.0308528,3,0.00502512562814073
"2212",259325,-0.000855081,26,0.0152284263959391
"2214",211569,-0.0403395,15,0.00502512562814073
"2216",243830,-0.160599,49,0.00169204737732664
"2217",214179,-0.0372411,9,0.00502512562814073
"2222",256588,-0.0177041,27,0.0152284263959391
"2223",212930,-0.113942,23,0.00502512562814073
"2224",288728,-0.572685,25,0.00502512562814073
"2232",114213,-0.00639496,32,0.0101010101010102
"2233",170700,-0.0926497,8,0.00502512562814073
"2235",214113,-0.0151935,25,0.00502512562814073
"2236",273501,-0.0710929,5,0.00502512562814073
"2237",143453,-0.0510885,10,0.00502512562814073
"2241",127462,-0.0337657,31,0.00502512562814073
"2242",285077,-0.0406007,25,0.0101010101010102
"2244",186853,-0.0961527,25,0.00502512562814073
"2245",113150,-0.227488,12,0.0101010101010102
"2249",244405,-0.247232,28,0.0152284263959391
"2250",171975,-0.0278778,18,0.0101010101010102
"2251",144097,-0.00363865,3,0.00502512562814073
"2254",187216,-0.0229094,7,0.00502512562814073
"2256",286389,-0.00989698,14,0.00502512562814073
"2262",271554,-0.436384,36,0.00502512562814073
"2271",244436,-0.00484352,25,0.00502512562814073
"2275",228868,-0.00385963,22,0.0101010101010102
"2277",241612,-0.00700395,28,0.0152284263959391
"2280",229498,-0.311259,12,0.00502512562814073
"2282",144794,-0.00784851,30,0.00502512562814073
"2283",210940,-0.0622834,13,0.0101010101010102
"2286",159410,-0.000587551,30,0.00502512562814073
"2289",271525,-0.110097,29,0.00502512562814073
"2290",244550,-0.122542,15,0.00502512562814073
"2292",174271,-0.00496258,19,0.0101010101010102
"2294",211596,-0.191409,7,0.00502512562814073
"2301",187033,-0.213024,9,0.00502512562814073
"2302",143893,-0.103498,24,0.00502512562814073
"2307",211907,-0.00494224,30,0.00502512562814073
"2308",226157,-0.0287141,7,0.00502512562814073
"2309",127665,-0.0530734,14,0.00502512562814073
"2316",189101,-0.0180028,21,0.00502512562814073
"2318",185299,-0.018356,27,0.0101010101010102
"2321",174347,-0.00299256,1,0.00502512562814073
"2323",256122,-0.102629,25,0.00502512562814073
"2325",225423,-5.57688e-05,32,0.00502512562814073
"2326",210027,-0.0121964,19,0.00169204737732664
"2334",114815,-0.00313517,23,0.0101010101010102
"2345",244354,-0.0782269,24,0.0152284263959391
"2351",189272,-0.229089,21,0.00502512562814073
"2354",289900,-0.14871,37,0
"2369",287597,-0.000461186,15,0.0101010101010102
"2377",259903,-0.0298125,23,0.0204081632653061
"2387",287377,-0.00196101,5,0
"2393",240484,-0.000223874,19,0
"2396",271344,-0.0375206,7,0.00502512562814073
"2398",143903,-0.000849834,13,0.00502512562814073
"2404",188121,-0.0863505,9,0.00502512562814073
"2406",211440,-0.0683698,45,0.00502512562814073
"2412",141131,-0.000239504,25,0
"2413",189720,-0.188126,5,0.00502512562814073
"2414",113476,-0.00566061,9,0.00502512562814073
"2415",142997,-0.013753,9,0.00502512562814073
"2418",273208,-0.0410063,13,0.00502512562814073
"2426",242670,-0.0174186,13,0.00502512562814073
"2431",244181,-0.0255514,1,0.00502512562814073
"2432",240767,-0.02658,29,0.00502512562814073
"2436",240331,-0.0225375,13,0.00502512562814073
"2440",143840,-0.0243784,13,0.00502512562814073
"2443",126397,-0.0300894,4,0.0101010101010102
"2444",114028,-9.61797e-05,8,0.0101010101010102
"2452",289111,-0.00279015,16,0.0101010101010102
"2455",226940,-0.0310235,22,0.00502512562814073
"2456",241464,-0.0651734,13,0.00502512562814073
"2457",155762,-0.138973,35,0.0101010101010102
"2459",110015,-0.0273951,6,0.0101010101010102
"2460",142179,-0.0233512,6,0.00502512562814073
"2470",172209,-0.0647276,8,0.0101010101010102
"2472",225777,-0.0802313,20,0.00502512562814073
"2475",156981,-0.182369,8,0.0152284263959391
"2476",270241,-6.26489e-05,12,0
"2478",257342,-0.0188687,13,0.00502512562814073
"2479",210918,-0.148834,4,0.00502512562814073
"2483",285979,-0.00295479,15,0.00502512562814073
"2489",185133,-0.0238042,22,0.00502512562814073
"2493",259170,-0.0394777,26,0.00502512562814073
"2494",258572,-0.0261788,4,0.0101010101010102
"2496",171525,-0.0658512,13,0.00502512562814073
"2497",158075,-0.0471215,33,0.0101010101010102
"2509",228580,-0.0165043,17,0.00502512562814073
"2513",172297,-0.213366,3,0.00502512562814073
"2519",185190,-0.0580417,14,0.00502512562814073
"2521",257044,-0.0450887,10,0.0101010101010102
"2526",113224,-0.0914852,16,0.00502512562814073
"2527",285003,-0.064307,10,0.00502512562814073
"2534",225531,-0.0371229,6,0.00502512562814073
"2536",272871,-0.0730848,15,0.0101010101010102
"2544",225995,-0.00656375,8,0.00502512562814073
"2551",143941,-0.25803,6,0.00502512562814073
"2553",255036,-0.0329145,10,0.00502512562814073
"2554",256629,-0.136329,21,0.00502512562814073
"2558",287886,-0.11291,10,0.00502512562814073
"2560",243089,-0.0547047,11,0.00502512562814073
"2564",188367,-0.083926,11,0
"2589",211396,-0.0437498,4,0.00502512562814073
"2595",228972,-0.112815,6,0.00502512562814073
"2597",110895,-3.46379e-05,12,0.00502512562814073
"2602",142712,-0.0116726,13,0
"2606",272994,-0.11258,14,0.00502512562814073
"2612",171478,-0.0420098,4,0.00502512562814073
"2618",288049,-0.00140917,4,0.00502512562814073
"2626",240951,-0.0186084,20,0.0152284263959391
"2631",143479,-0.00786091,2,0.00502512562814073
"2632",212848,-0.000704859,15,0.00502512562814073
"2634",229064,-0.17181,8,0.00502512562814073
"2645",288350,-0.137349,9,0.00502512562814073
"2649",228121,-0.0502411,10,0.00502512562814073
"2651",143058,-0.108971,7,0.00502512562814073
"2669",187228,-0.00681133,1,0.00502512562814073
"2670",225521,-0.0742356,11,0.00502512562814073
"2675",285068,-0.0428077,5,0.00502512562814073
"2677",287740,-0.0330111,2,0.00502512562814073
"2682",270974,-0.000129788,3,0.00502512562814073
"2684",172449,-0.217325,2,0.00502512562814073
"2692",144885,-0.0122322,3,0.00502512562814073
"2694",244529,-0.0522241,14,0.0101010101010102
"2696",157957,-7.45167e-05,10,0.00923076923076938
"2710",110965,-0.0355317,5,0.00502512562814073
"2717",227424,-1.03236e-06,7,0.00502512562814073
"2722",256442,-0.0199844,13,0.00502512562814073
"2733",156505,-0.142333,7,0.00502512562814073
"2735",143599,-0.000967882,2,0.00502512562814073
"2750",213220,-0.0070108,6,0.00502512562814073
"2757",140437,-0.00445646,12,0.00502512562814073
"2758",171589,-0.00044501,7,0.00502512562814073
"2761",240206,-0.0024642,1,0.00502512562814073
"2763",286312,-0.0352275,2,0.00502512562814073
"2766",229089,-0.0497547,4,0.00502512562814073
"2773",170944,-0.0156239,17,0.00502512562814073
"2789",173915,-0.0996673,4,0.00502512562814073
"2800",270264,-0.156197,7,0.00502512562814073
"2803",127640,-0.0407377,5,0.00502512562814073
"2805",241378,-0.0154481,3,0.00169204737732664
"2815",112394,-0.0108997,6,0.00502512562814073
"2816",173916,-0.00115483,2,0.00502512562814073
"2818",243627,-0.0892308,3,0.00502512562814073
"2829",229656,-0.054703,5,0.00502512562814073
"2831",170149,-0.134705,6,0.00502512562814073
"2839",212387,-0.0144965,8,0.00502512562814073
"2856",159760,-4.16347e-06,4,0.00502512562814073
"2859",128844,-0.00397554,4,0.00502512562814073
"2875",211649,-0.0768422,7,0.00502512562814073
"2876",211518,-0.169265,4,0.00502512562814073
"2877",288638,-0.140786,8,0.00502512562814073
"2892",288096,-0.0199416,3,0.00502512562814073
"2897",141281,-0.0117889,3,0.00502512562814073
"2900",143650,-0.0246864,4,0.0152284263959391
"2912",189629,-0.00394037,5,0.00502512562814073
"2925",274572,-0.0368076,8,0.00502512562814073
"2926",256508,-0.0113019,7,0.00502512562814073
"2953",141348,-0.0660678,10,0.00502512562814073
"2957",157247,-0.0211265,5,0.00502512562814073
"2971",213602,-0.0472947,4,0.00502512562814073
"2972",272624,-0.0843325,2,0.00502512562814073
"2985",170691,-0.0525771,5,0.00502512562814073
"2992",214408,-0.00693466,3,0.00502512562814073
"2996",173973,-0.0887344,6,0.00502512562814073
"3018",272873,-0.00811586,3,0.00502512562814073
"3019",270678,-0.0380358,1,0.00502512562814073
"3024",185374,-0.0151181,4,0.00502512562814073
"3057",242854,-0.00214789,1,0.00502512562814073
"3059",129385,-0.0147217,1,0.00502512562814073
"3072",213329,-0.00629332,2,0.0101010101010102
"3082",213481,-0.0192962,3,0.00502512562814073
"3097",226258,-0.172381,5,0.00502512562814073
"3134",240757,-0.293019,1,0.00502512562814073
"3323",258702,-0.150634,1,0.00502512562814073
"3403",225608,-0.0083394,1,0.00502512562814073
"3417",172659,-0.0167075,1,0.00502512562814073
"3418",173681,-0.0153494,1,0.00502512562814073
"3463",171395,-0.103067,1,0.00502512562814073
"3464",188196,-0.00264764,1,0.00502512562814073
"3484",243071,-0.012845,1,0.00502512562814073
"3509",242938,-0.024937,1,0.00502512562814073
